,Iteration,Fitness,FEvals,Time,State,use_fast_mimic,Population Size,Keep Percent,max_iters
0,0,555.0,100,0.0020612719818018377,"[6, 19, 14, 10, 7, 6, 18, 10, 10, 3]",True,100,0.6,500.0
1,1,835.0,202,0.04241632798220962,"[18.0, 17.0, 1.0, 16.0, 18.0, 0.0, 17.0, 14.0, 3.0, 19.0]",True,100,0.6,500.0
2,2,835.0,303,0.08262392197502777,"[18.0, 17.0, 1.0, 16.0, 18.0, 0.0, 17.0, 14.0, 3.0, 19.0]",True,100,0.6,500.0
3,4,856.0,506,0.1565927039773669,"[19.0, 8.0, 6.0, 17.0, 18.0, 12.0, 17.0, 14.0, 0.0, 19.0]",True,100,0.6,500.0
4,8,856.0,910,0.2893313819949981,"[19.0, 8.0, 6.0, 17.0, 18.0, 12.0, 17.0, 14.0, 0.0, 19.0]",True,100,0.6,500.0
5,16,856.0,1415,0.4410061419766862,"[19.0, 8.0, 6.0, 17.0, 18.0, 12.0, 17.0, 14.0, 0.0, 19.0]",True,100,0.6,500.0
6,32,856.0,1415,0.4410061419766862,"[19.0, 8.0, 6.0, 17.0, 18.0, 12.0, 17.0, 14.0, 0.0, 19.0]",True,100,0.6,500.0
7,64,856.0,1415,0.4410061419766862,"[19.0, 8.0, 6.0, 17.0, 18.0, 12.0, 17.0, 14.0, 0.0, 19.0]",True,100,0.6,500.0
8,128,856.0,1415,0.4410061419766862,"[19.0, 8.0, 6.0, 17.0, 18.0, 12.0, 17.0, 14.0, 0.0, 19.0]",True,100,0.6,500.0
9,256,856.0,1415,0.4410061419766862,"[19.0, 8.0, 6.0, 17.0, 18.0, 12.0, 17.0, 14.0, 0.0, 19.0]",True,100,0.6,500.0
10,512,856.0,1415,0.4410061419766862,"[19.0, 8.0, 6.0, 17.0, 18.0, 12.0, 17.0, 14.0, 0.0, 19.0]",True,100,0.6,500.0
