,Iteration,Time,Fitness,FEvals,Population Size,Mutation Rate,max_iters
0,0,0.0009596479940228164,1.0,100.0,100,0.6,5000
1,1,0.011635777002084069,10.0,202.0,100,0.6,5000
2,2,0.02258762199198827,14.0,304.0,100,0.6,5000
3,3,0.033281947995419614,14.0,405.0,100,0.6,5000
4,4,0.03931607000413351,14.0,506.0,100,0.6,5000
5,5,0.050200341996969655,14.0,607.0,100,0.6,5000
6,6,0.05605830300191883,17.0,709.0,100,0.6,5000
7,7,0.06189270799222868,17.0,810.0,100,0.6,5000
8,8,0.06863840299774893,17.0,911.0,100,0.6,5000
9,9,0.08002291299635544,17.0,1012.0,100,0.6,5000
10,10,0.08617853600298986,20.0,1114.0,100,0.6,5000
11,11,0.09205553200445138,20.0,1215.0,100,0.6,5000
12,12,0.09778594100498594,22.0,1317.0,100,0.6,5000
13,13,0.10342858999501914,22.0,1418.0,100,0.6,5000
14,14,0.10889878700254485,22.0,1519.0,100,0.6,5000
15,15,0.11436967499321327,25.0,1621.0,100,0.6,5000
16,16,0.11973394799861126,25.0,1722.0,100,0.6,5000
17,17,0.13036473299143836,25.0,1823.0,100,0.6,5000
18,18,0.1357323029951658,25.0,1924.0,100,0.6,5000
19,19,0.1412534789997153,25.0,2025.0,100,0.6,5000
20,20,0.1467250480054645,25.0,2126.0,100,0.6,5000
21,21,0.15213575199595653,26.0,2228.0,100,0.6,5000
22,22,0.15768827599822544,26.0,2329.0,100,0.6,5000
23,23,0.16315301999566145,27.0,2431.0,100,0.6,5000
24,24,0.16883354799938388,27.0,2532.0,100,0.6,5000
25,25,0.1747009149985388,27.0,2633.0,100,0.6,5000
26,26,0.18072474500513636,27.0,2734.0,100,0.6,5000
27,27,0.18615169999247883,27.0,2835.0,100,0.6,5000
28,28,0.19177601300179958,28.0,2937.0,100,0.6,5000
29,29,0.1973347540042596,28.0,3038.0,100,0.6,5000
30,30,0.2027827870042529,30.0,3140.0,100,0.6,5000
31,31,0.20853149199683685,30.0,3241.0,100,0.6,5000
32,32,0.21400598699983675,30.0,3342.0,100,0.6,5000
33,33,0.22566786099923775,31.0,3444.0,100,0.6,5000
34,34,0.23158077399421018,31.0,3545.0,100,0.6,5000
35,35,0.23727938599768095,31.0,3646.0,100,0.6,5000
36,36,0.24309883599926252,31.0,3747.0,100,0.6,5000
37,37,0.24870981900312472,31.0,3848.0,100,0.6,5000
38,38,0.2543013870017603,31.0,3949.0,100,0.6,5000
39,39,0.2601642509980593,31.0,4050.0,100,0.6,5000
40,40,0.2658970549964579,31.0,4151.0,100,0.6,5000
41,41,0.2721922429918777,31.0,4252.0,100,0.6,5000
42,42,0.2780050669971388,31.0,4353.0,100,0.6,5000
43,43,0.28354944300372154,31.0,4454.0,100,0.6,5000
44,44,0.28961392799101304,31.0,4555.0,100,0.6,5000
45,45,0.2956631720007863,32.0,4657.0,100,0.6,5000
46,46,0.30167759899632074,32.0,4758.0,100,0.6,5000
47,47,0.3075452699995367,32.0,4859.0,100,0.6,5000
48,48,0.31350348799605854,32.0,4960.0,100,0.6,5000
49,49,0.3192263249948155,32.0,5061.0,100,0.6,5000
50,50,0.32543317100498825,32.0,5162.0,100,0.6,5000
51,51,0.3312422500021057,32.0,5263.0,100,0.6,5000
52,52,0.3369339740020223,34.0,5365.0,100,0.6,5000
53,53,0.3429993659956381,34.0,5466.0,100,0.6,5000
54,54,0.34897359399474226,34.0,5567.0,100,0.6,5000
55,55,0.35472116799792275,34.0,5668.0,100,0.6,5000
56,56,0.36067637499945704,36.0,5770.0,100,0.6,5000
57,57,0.366585921990918,36.0,5871.0,100,0.6,5000
58,58,0.3721953759959433,36.0,5972.0,100,0.6,5000
59,59,0.3781217999930959,36.0,6073.0,100,0.6,5000
60,60,0.3838907799945446,36.0,6174.0,100,0.6,5000
61,61,0.38958980700408574,39.0,6276.0,100,0.6,5000
62,62,0.3955118849989958,41.0,6378.0,100,0.6,5000
63,63,0.40115462700487114,41.0,6479.0,100,0.6,5000
64,64,0.40717181700165384,41.0,6580.0,100,0.6,5000
65,65,0.41956089199811686,41.0,6681.0,100,0.6,5000
66,66,0.4266533329937374,41.0,6782.0,100,0.6,5000
67,67,0.4326128440006869,42.0,6884.0,100,0.6,5000
68,68,0.4383676659927005,42.0,6985.0,100,0.6,5000
69,69,0.44454256899189204,42.0,7086.0,100,0.6,5000
70,70,0.4502320790052181,44.0,7188.0,100,0.6,5000
71,71,0.4559760480042314,44.0,7289.0,100,0.6,5000
72,72,0.46200334500463214,44.0,7390.0,100,0.6,5000
73,73,0.4684281380032189,44.0,7491.0,100,0.6,5000
74,74,0.474441967002349,44.0,7592.0,100,0.6,5000
75,75,0.4801942789927125,44.0,7693.0,100,0.6,5000
76,76,0.48591454900451936,44.0,7794.0,100,0.6,5000
77,77,0.49185679499350954,44.0,7895.0,100,0.6,5000
78,78,0.497744670996326,44.0,7996.0,100,0.6,5000
79,79,0.5034944670042023,44.0,8097.0,100,0.6,5000
80,80,0.5096792099939194,48.0,8199.0,100,0.6,5000
81,81,0.5154486989922589,48.0,8300.0,100,0.6,5000
82,82,0.5212468779936898,48.0,8401.0,100,0.6,5000
83,83,0.5278194029961014,48.0,8502.0,100,0.6,5000
84,84,0.5339402880053967,49.0,8604.0,100,0.6,5000
85,85,0.5399574909970397,49.0,8705.0,100,0.6,5000
86,86,0.5467706479976187,49.0,8806.0,100,0.6,5000
87,87,0.5532463290001033,49.0,8907.0,100,0.6,5000
88,88,0.5592265390005196,49.0,9008.0,100,0.6,5000
89,89,0.5651318869931856,49.0,9109.0,100,0.6,5000
90,90,0.5713826029968914,51.0,9211.0,100,0.6,5000
91,91,0.5778641310025705,51.0,9312.0,100,0.6,5000
92,92,0.583646895000129,52.0,9414.0,100,0.6,5000
93,93,0.5895637619978515,52.0,9515.0,100,0.6,5000
94,94,0.5956876429991098,52.0,9616.0,100,0.6,5000
95,95,0.6016136739926878,52.0,9717.0,100,0.6,5000
96,96,0.6077389720012434,52.0,9818.0,100,0.6,5000
97,97,0.6139038309920579,52.0,9919.0,100,0.6,5000
98,98,0.6199706820043502,52.0,10020.0,100,0.6,5000
99,99,0.6261731800041161,52.0,10121.0,100,0.6,5000
100,100,0.6322818269982236,53.0,10223.0,100,0.6,5000
101,101,0.6382246919965837,53.0,10324.0,100,0.6,5000
102,102,0.6444860420015175,53.0,10425.0,100,0.6,5000
103,103,0.650399930003914,53.0,10526.0,100,0.6,5000
104,104,0.6570937060023425,53.0,10627.0,100,0.6,5000
105,105,0.6641027689911425,53.0,10728.0,100,0.6,5000
106,106,0.6713647479919018,56.0,10830.0,100,0.6,5000
107,107,0.6775180010008626,56.0,10931.0,100,0.6,5000
108,108,0.6845907980023185,56.0,11032.0,100,0.6,5000
109,109,0.6909864250046667,56.0,11133.0,100,0.6,5000
110,110,0.6970067910006037,56.0,11234.0,100,0.6,5000
111,111,0.703120709003997,56.0,11335.0,100,0.6,5000
112,112,0.7091882239910774,56.0,11436.0,100,0.6,5000
113,113,0.7152129439928103,56.0,11537.0,100,0.6,5000
114,114,0.7211760859936476,56.0,11638.0,100,0.6,5000
115,115,0.7273410499910824,57.0,11740.0,100,0.6,5000
116,116,0.733275834005326,57.0,11841.0,100,0.6,5000
117,117,0.7392189329984831,57.0,11942.0,100,0.6,5000
118,118,0.7453572219965281,57.0,12043.0,100,0.6,5000
119,119,0.7514779859920964,57.0,12144.0,100,0.6,5000
120,120,0.7575618190021487,57.0,12245.0,100,0.6,5000
121,121,0.7636115399945993,57.0,12346.0,100,0.6,5000
122,122,0.7697716809925623,58.0,12448.0,100,0.6,5000
123,123,0.7765534539939836,58.0,12549.0,100,0.6,5000
124,124,0.7827336039918009,59.0,12651.0,100,0.6,5000
125,125,0.7886483710026368,59.0,12752.0,100,0.6,5000
126,126,0.7950210120034171,65.0,12854.0,100,0.6,5000
127,127,0.8011162809998496,65.0,12955.0,100,0.6,5000
128,128,0.8074531610036502,65.0,13056.0,100,0.6,5000
129,129,0.8199660050013335,65.0,13157.0,100,0.6,5000
130,130,0.8270890900021186,65.0,13258.0,100,0.6,5000
131,131,0.8334598399960669,65.0,13359.0,100,0.6,5000
132,132,0.8395208869915223,65.0,13460.0,100,0.6,5000
133,133,0.8460974100016756,65.0,13561.0,100,0.6,5000
134,134,0.85241126800247,65.0,13662.0,100,0.6,5000
135,135,0.8589948809967609,65.0,13763.0,100,0.6,5000
136,136,0.8662152119941311,65.0,13864.0,100,0.6,5000
137,137,0.8725715780019527,65.0,13965.0,100,0.6,5000
138,138,0.8789797839999665,65.0,14066.0,100,0.6,5000
139,139,0.8852353260008385,65.0,14167.0,100,0.6,5000
140,140,0.8919151659938507,65.0,14268.0,100,0.6,5000
141,141,0.898382158993627,68.0,14370.0,100,0.6,5000
142,142,0.9048811020038556,69.0,14472.0,100,0.6,5000
143,143,0.9113678549911128,77.0,14574.0,100,0.6,5000
144,144,0.9176660079974681,77.0,14675.0,100,0.6,5000
145,145,0.9243399059923831,77.0,14776.0,100,0.6,5000
146,146,0.9309742509940406,77.0,14877.0,100,0.6,5000
147,147,0.9372005100012757,77.0,14978.0,100,0.6,5000
148,148,0.9443862030020682,77.0,15079.0,100,0.6,5000
149,149,0.951099689991679,77.0,15180.0,100,0.6,5000
150,150,0.9575584599951981,78.0,15282.0,100,0.6,5000
151,151,0.9640323490020819,79.0,15384.0,100,0.6,5000
152,152,0.9705921220011078,79.0,15485.0,100,0.6,5000
153,153,0.9774093580053886,79.0,15586.0,100,0.6,5000
154,154,0.9841099210025277,79.0,15687.0,100,0.6,5000
155,155,0.990677619993221,79.0,15788.0,100,0.6,5000
156,156,0.9973648960003629,79.0,15889.0,100,0.6,5000
157,157,1.0038305570051307,81.0,15991.0,100,0.6,5000
158,158,1.010604005001369,81.0,16092.0,100,0.6,5000
159,159,1.0174238570034504,81.0,16193.0,100,0.6,5000
160,160,1.0242731549951714,81.0,16294.0,100,0.6,5000
161,161,1.0311459490039852,81.0,16395.0,100,0.6,5000
162,162,1.0379040599946165,81.0,16496.0,100,0.6,5000
163,163,1.044833199994173,83.0,16598.0,100,0.6,5000
164,164,1.052290728999651,83.0,16699.0,100,0.6,5000
165,165,1.059153658003197,83.0,16800.0,100,0.6,5000
166,166,1.0666116859938484,83.0,16901.0,100,0.6,5000
167,167,1.0739120229991386,83.0,17002.0,100,0.6,5000
168,168,1.080941318999976,83.0,17103.0,100,0.6,5000
169,169,1.0878814710013103,83.0,17204.0,100,0.6,5000
170,170,1.0946924689924344,83.0,17305.0,100,0.6,5000
171,171,1.1015678099938668,83.0,17406.0,100,0.6,5000
172,172,1.1083481969981221,86.0,17508.0,100,0.6,5000
173,173,1.115197534993058,86.0,17609.0,100,0.6,5000
174,174,1.1219738969957689,86.0,17710.0,100,0.6,5000
175,175,1.129236642998876,87.0,17812.0,100,0.6,5000
176,176,1.1357946130010532,88.0,17914.0,100,0.6,5000
177,177,1.1426824759982992,94.0,18016.0,100,0.6,5000
178,178,1.1494901139958529,94.0,18117.0,100,0.6,5000
179,179,1.1563505889935186,94.0,18218.0,100,0.6,5000
180,180,1.1633820519928122,94.0,18319.0,100,0.6,5000
181,181,1.1702570280031068,94.0,18420.0,100,0.6,5000
182,182,1.1772444310045103,94.0,18521.0,100,0.6,5000
183,183,1.1842671539925504,95.0,18623.0,100,0.6,5000
184,184,1.1917227069934597,95.0,18724.0,100,0.6,5000
185,185,1.1986574589973316,95.0,18825.0,100,0.6,5000
186,186,1.2057372459967155,95.0,18926.0,100,0.6,5000
187,187,1.2130679129913915,95.0,19027.0,100,0.6,5000
188,188,1.2201983160048258,95.0,19128.0,100,0.6,5000
189,189,1.2274315469985595,95.0,19229.0,100,0.6,5000
190,190,1.234747337992303,100.0,19331.0,100,0.6,5000
191,191,1.2420136849978007,100.0,19432.0,100,0.6,5000
192,192,1.2491113309952198,100.0,19533.0,100,0.6,5000
193,193,1.2560342350043356,100.0,19634.0,100,0.6,5000
194,194,1.2634567450004397,100.0,19735.0,100,0.6,5000
195,195,1.2720390119939111,100.0,19836.0,100,0.6,5000
196,196,1.279862316994695,100.0,19937.0,100,0.6,5000
197,197,1.287297586997738,100.0,20038.0,100,0.6,5000
198,198,1.294507151003927,100.0,20139.0,100,0.6,5000
199,199,1.3017961089935852,100.0,20240.0,100,0.6,5000
200,200,1.3090178919956088,100.0,20341.0,100,0.6,5000
201,201,1.3171728070010431,100.0,20442.0,100,0.6,5000
202,202,1.325080975992023,100.0,20543.0,100,0.6,5000
203,203,1.3325008630054072,100.0,20644.0,100,0.6,5000
204,204,1.3398992409929633,100.0,20745.0,100,0.6,5000
205,205,1.3475101649964927,100.0,20846.0,100,0.6,5000
206,206,1.354986589998589,100.0,20947.0,100,0.6,5000
207,207,1.36287135600287,100.0,21048.0,100,0.6,5000
208,208,1.3701466969941976,100.0,21149.0,100,0.6,5000
209,209,1.3775345369940624,100.0,21250.0,100,0.6,5000
210,210,1.3848607129912125,100.0,21351.0,100,0.6,5000
211,211,1.392302334003034,100.0,21452.0,100,0.6,5000
212,212,1.399677954002982,100.0,21553.0,100,0.6,5000
213,213,1.4073056429915596,100.0,21654.0,100,0.6,5000
214,214,1.414779543003533,100.0,21755.0,100,0.6,5000
215,215,1.4218550630030222,100.0,21856.0,100,0.6,5000
216,216,1.42969688399171,100.0,21957.0,100,0.6,5000
217,217,1.4377156580012525,100.0,22058.0,100,0.6,5000
218,218,1.4453121719998308,100.0,22159.0,100,0.6,5000
219,219,1.4529712499934249,100.0,22260.0,100,0.6,5000
220,220,1.4604939010023372,100.0,22361.0,100,0.6,5000
221,221,1.468145730003016,100.0,22462.0,100,0.6,5000
222,222,1.4754341999941971,100.0,22563.0,100,0.6,5000
223,223,1.4827781350031728,100.0,22664.0,100,0.6,5000
224,224,1.49013414500223,100.0,22765.0,100,0.6,5000
225,225,1.4976976290054154,100.0,22866.0,100,0.6,5000
226,226,1.5049238589999732,100.0,22967.0,100,0.6,5000
227,227,1.5123048859968549,100.0,23068.0,100,0.6,5000
228,228,1.5196119229949545,100.0,23169.0,100,0.6,5000
229,229,1.5270715709921205,100.0,23270.0,100,0.6,5000
230,230,1.5345026989962207,100.0,23371.0,100,0.6,5000
231,231,1.5419617659936193,100.0,23472.0,100,0.6,5000
232,232,1.5497089480049908,100.0,23573.0,100,0.6,5000
233,233,1.5577402130002156,100.0,23674.0,100,0.6,5000
234,234,1.5657520719978493,100.0,23775.0,100,0.6,5000
235,235,1.5731064220017288,100.0,23876.0,100,0.6,5000
236,236,1.5805036739911884,100.0,23977.0,100,0.6,5000
237,237,1.5877255789964693,100.0,24078.0,100,0.6,5000
238,238,1.5952621350006666,100.0,24179.0,100,0.6,5000
239,239,1.602502364999964,100.0,24280.0,100,0.6,5000
240,240,1.6100509639945813,100.0,24381.0,100,0.6,5000
241,241,1.6186971839924809,100.0,24482.0,100,0.6,5000
242,242,1.6277234070003033,100.0,24583.0,100,0.6,5000
243,243,1.6408405779948225,100.0,24684.0,100,0.6,5000
244,244,1.6498308799928054,100.0,24785.0,100,0.6,5000
245,245,1.6578251229948364,100.0,24886.0,100,0.6,5000
246,246,1.6655871080001816,100.0,24987.0,100,0.6,5000
247,247,1.6727174230036326,100.0,25088.0,100,0.6,5000
248,248,1.6806921149982372,100.0,25189.0,100,0.6,5000
249,249,1.6884537489968352,100.0,25290.0,100,0.6,5000
250,250,1.6962149509927258,100.0,25391.0,100,0.6,5000
251,251,1.703621660999488,100.0,25492.0,100,0.6,5000
252,252,1.7112925499968696,100.0,25593.0,100,0.6,5000
253,253,1.7191914989962243,100.0,25694.0,100,0.6,5000
254,254,1.726738020995981,100.0,25795.0,100,0.6,5000
255,255,1.7341720080003142,100.0,25896.0,100,0.6,5000
256,256,1.7417210830026306,100.0,25997.0,100,0.6,5000
257,257,1.7564188079995802,100.0,26098.0,100,0.6,5000
258,258,1.7640561049920507,100.0,26199.0,100,0.6,5000
259,259,1.7712888270034455,100.0,26300.0,100,0.6,5000
260,260,1.7788143899961142,100.0,26401.0,100,0.6,5000
261,261,1.7860311919939704,100.0,26502.0,100,0.6,5000
262,262,1.7935202340013348,100.0,26603.0,100,0.6,5000
263,263,1.8015418180002598,100.0,26704.0,100,0.6,5000
264,264,1.8091104939958313,100.0,26805.0,100,0.6,5000
265,265,1.816539356004796,100.0,26906.0,100,0.6,5000
266,266,1.8238784319983097,100.0,27007.0,100,0.6,5000
267,267,1.8315313320053974,100.0,27108.0,100,0.6,5000
268,268,1.8396195480017923,100.0,27209.0,100,0.6,5000
269,269,1.8472535189939663,100.0,27310.0,100,0.6,5000
270,270,1.8545769750053296,100.0,27411.0,100,0.6,5000
271,271,1.862232411003788,100.0,27512.0,100,0.6,5000
272,272,1.8711297889967682,100.0,27613.0,100,0.6,5000
273,273,1.8785897810012102,100.0,27714.0,100,0.6,5000
274,274,1.8868405709945364,100.0,27815.0,100,0.6,5000
275,275,1.894636962999357,100.0,27916.0,100,0.6,5000
276,276,1.9018606250028824,100.0,28017.0,100,0.6,5000
277,277,1.909290437004529,100.0,28118.0,100,0.6,5000
278,278,1.9166543430037564,100.0,28219.0,100,0.6,5000
279,279,1.9239894519996597,100.0,28320.0,100,0.6,5000
280,280,1.9315597700042417,100.0,28421.0,100,0.6,5000
281,281,1.9387374329962768,100.0,28522.0,100,0.6,5000
282,282,1.9463258320029126,100.0,28623.0,100,0.6,5000
283,283,1.9534485649928683,100.0,28724.0,100,0.6,5000
284,284,1.9614203450037166,100.0,28825.0,100,0.6,5000
285,285,1.969067380996421,100.0,28926.0,100,0.6,5000
286,286,1.976694019002025,100.0,29027.0,100,0.6,5000
287,287,1.9839410499989754,100.0,29128.0,100,0.6,5000
288,288,1.9912937460030662,100.0,29229.0,100,0.6,5000
289,289,1.9984106119954959,100.0,29330.0,100,0.6,5000
290,290,2.0058055050030816,100.0,29431.0,100,0.6,5000
291,291,2.013324155996088,100.0,29532.0,100,0.6,5000
292,292,2.020519793004496,100.0,29633.0,100,0.6,5000
293,293,2.0280053750029765,100.0,29734.0,100,0.6,5000
294,294,2.0351923889975296,100.0,29835.0,100,0.6,5000
295,295,2.0425716640020255,100.0,29936.0,100,0.6,5000
296,296,2.0502561409957707,100.0,30037.0,100,0.6,5000
297,297,2.0577679659909336,100.0,30138.0,100,0.6,5000
298,298,2.0650284190051025,100.0,30239.0,100,0.6,5000
299,299,2.0722524439916015,100.0,30340.0,100,0.6,5000
300,300,2.079794278004556,100.0,30441.0,100,0.6,5000
301,301,2.0878421169909416,100.0,30542.0,100,0.6,5000
302,302,2.095136812000419,100.0,30643.0,100,0.6,5000
303,303,2.102546900001471,100.0,30744.0,100,0.6,5000
304,304,2.10980620799819,100.0,30845.0,100,0.6,5000
305,305,2.117094229994109,100.0,30946.0,100,0.6,5000
306,306,2.1243816950009204,100.0,31047.0,100,0.6,5000
307,307,2.131531316001201,100.0,31148.0,100,0.6,5000
308,308,2.1388301260012668,100.0,31249.0,100,0.6,5000
309,309,2.1462894290016266,100.0,31350.0,100,0.6,5000
310,310,2.153681209005299,100.0,31451.0,100,0.6,5000
311,311,2.1609462829947006,100.0,31552.0,100,0.6,5000
312,312,2.1680193380016135,100.0,31653.0,100,0.6,5000
313,313,2.175550870000734,100.0,31754.0,100,0.6,5000
314,314,2.1829674689943204,100.0,31855.0,100,0.6,5000
315,315,2.1899974289990496,100.0,31956.0,100,0.6,5000
316,316,2.1973391759966034,100.0,32057.0,100,0.6,5000
317,317,2.2052699250052683,100.0,32158.0,100,0.6,5000
318,318,2.2132188830000814,100.0,32259.0,100,0.6,5000
319,319,2.22037557400472,100.0,32360.0,100,0.6,5000
320,320,2.2279104170011124,100.0,32461.0,100,0.6,5000
321,321,2.235290796001209,100.0,32562.0,100,0.6,5000
322,322,2.2428106760053197,100.0,32663.0,100,0.6,5000
323,323,2.250166572004673,100.0,32764.0,100,0.6,5000
324,324,2.2578422399965348,100.0,32865.0,100,0.6,5000
325,325,2.2651950849976856,100.0,32966.0,100,0.6,5000
326,326,2.272552219001227,100.0,33067.0,100,0.6,5000
327,327,2.279936822000309,100.0,33168.0,100,0.6,5000
328,328,2.2870087929914007,100.0,33269.0,100,0.6,5000
329,329,2.2945057339966297,100.0,33370.0,100,0.6,5000
330,330,2.3019513269973686,100.0,33471.0,100,0.6,5000
331,331,2.309496803994989,100.0,33572.0,100,0.6,5000
332,332,2.3167191529937554,100.0,33673.0,100,0.6,5000
333,333,2.324193064996507,100.0,33774.0,100,0.6,5000
334,334,2.3323940400005085,100.0,33875.0,100,0.6,5000
335,335,2.339455220993841,100.0,33976.0,100,0.6,5000
336,336,2.347160534991417,100.0,34077.0,100,0.6,5000
337,337,2.3543009440036258,100.0,34178.0,100,0.6,5000
338,338,2.3617716720036697,100.0,34279.0,100,0.6,5000
339,339,2.3688204950012732,100.0,34380.0,100,0.6,5000
340,340,2.376336599991191,100.0,34481.0,100,0.6,5000
341,341,2.3834739939920837,100.0,34582.0,100,0.6,5000
342,342,2.3906706599955214,100.0,34683.0,100,0.6,5000
343,343,2.398073418997228,100.0,34784.0,100,0.6,5000
344,344,2.405102396995062,100.0,34885.0,100,0.6,5000
345,345,2.412533369002631,100.0,34986.0,100,0.6,5000
346,346,2.419841604991234,100.0,35087.0,100,0.6,5000
347,347,2.4278546209970955,100.0,35188.0,100,0.6,5000
348,348,2.4355359680048423,100.0,35289.0,100,0.6,5000
349,349,2.442890851001721,100.0,35390.0,100,0.6,5000
350,350,2.4500009339972166,100.0,35491.0,100,0.6,5000
351,351,2.45781531999819,100.0,35592.0,100,0.6,5000
352,352,2.4661900700011756,100.0,35693.0,100,0.6,5000
353,353,2.4742600079916883,100.0,35794.0,100,0.6,5000
354,354,2.48190097999759,100.0,35895.0,100,0.6,5000
355,355,2.489824331001728,100.0,35996.0,100,0.6,5000
356,356,2.4977398429909954,100.0,36097.0,100,0.6,5000
357,357,2.5054507439926965,100.0,36198.0,100,0.6,5000
358,358,2.5132156210020185,100.0,36299.0,100,0.6,5000
359,359,2.5203773730027024,100.0,36400.0,100,0.6,5000
360,360,2.5277934439945966,100.0,36501.0,100,0.6,5000
361,361,2.53495931699581,100.0,36602.0,100,0.6,5000
362,362,2.542254642001353,100.0,36703.0,100,0.6,5000
363,363,2.5500256279919995,100.0,36804.0,100,0.6,5000
364,364,2.5575298049952835,100.0,36905.0,100,0.6,5000
365,365,2.564918336996925,100.0,37006.0,100,0.6,5000
366,366,2.572490655002184,100.0,37107.0,100,0.6,5000
367,367,2.5801876689947676,100.0,37208.0,100,0.6,5000
368,368,2.587352970993379,100.0,37309.0,100,0.6,5000
369,369,2.5948889199935365,100.0,37410.0,100,0.6,5000
370,370,2.601909948993125,100.0,37511.0,100,0.6,5000
371,371,2.6094766360038193,100.0,37612.0,100,0.6,5000
372,372,2.6169343069923343,100.0,37713.0,100,0.6,5000
373,373,2.625644094994641,100.0,37814.0,100,0.6,5000
374,374,2.633292637998238,100.0,37915.0,100,0.6,5000
375,375,2.640771386999404,100.0,38016.0,100,0.6,5000
376,376,2.6483130429987796,100.0,38117.0,100,0.6,5000
377,377,2.6555099910037825,100.0,38218.0,100,0.6,5000
378,378,2.66336841500015,100.0,38319.0,100,0.6,5000
379,379,2.6709171309921658,100.0,38420.0,100,0.6,5000
380,380,2.6785445510031423,100.0,38521.0,100,0.6,5000
381,381,2.6856155099958414,100.0,38622.0,100,0.6,5000
382,382,2.6932915240031434,100.0,38723.0,100,0.6,5000
383,383,2.7006686620006803,100.0,38824.0,100,0.6,5000
384,384,2.7080237549962476,100.0,38925.0,100,0.6,5000
385,385,2.715419201995246,100.0,39026.0,100,0.6,5000
386,386,2.7228686699963873,100.0,39127.0,100,0.6,5000
387,387,2.730332881998038,100.0,39228.0,100,0.6,5000
388,388,2.7376818530028686,100.0,39329.0,100,0.6,5000
389,389,2.745924089991604,100.0,39430.0,100,0.6,5000
390,390,2.753015141002834,100.0,39531.0,100,0.6,5000
391,391,2.760313370003132,100.0,39632.0,100,0.6,5000
392,392,2.767679176002275,100.0,39733.0,100,0.6,5000
393,393,2.775054708996322,100.0,39834.0,100,0.6,5000
394,394,2.7821043040021323,100.0,39935.0,100,0.6,5000
395,395,2.789406593001331,100.0,40036.0,100,0.6,5000
396,396,2.797146122000413,100.0,40137.0,100,0.6,5000
397,397,2.8042329599993536,100.0,40238.0,100,0.6,5000
398,398,2.8116403720050585,100.0,40339.0,100,0.6,5000
399,399,2.8187642639968544,100.0,40440.0,100,0.6,5000
400,400,2.826375567005016,100.0,40541.0,100,0.6,5000
401,401,2.8336173389980104,100.0,40642.0,100,0.6,5000
402,402,2.841087687003892,100.0,40743.0,100,0.6,5000
403,403,2.8486502860032488,100.0,40844.0,100,0.6,5000
404,404,2.8560418999986723,100.0,40945.0,100,0.6,5000
405,405,2.864306809991831,100.0,41046.0,100,0.6,5000
406,406,2.871600568003487,100.0,41147.0,100,0.6,5000
407,407,2.880112572995131,100.0,41248.0,100,0.6,5000
408,408,2.888368454994634,100.0,41349.0,100,0.6,5000
409,409,2.8958431689970894,100.0,41450.0,100,0.6,5000
410,410,2.903763426002115,100.0,41551.0,100,0.6,5000
411,411,2.9113057049980853,100.0,41652.0,100,0.6,5000
412,412,2.9188927719951607,100.0,41753.0,100,0.6,5000
413,413,2.926493830003892,100.0,41854.0,100,0.6,5000
414,414,2.9350760270026512,100.0,41955.0,100,0.6,5000
415,415,2.9431342009920627,100.0,42056.0,100,0.6,5000
416,416,2.950426579991472,100.0,42157.0,100,0.6,5000
417,417,2.958009405992925,100.0,42258.0,100,0.6,5000
418,418,2.965432747005252,100.0,42359.0,100,0.6,5000
419,419,2.9726125549932476,100.0,42460.0,100,0.6,5000
420,420,2.9804498869925737,100.0,42561.0,100,0.6,5000
421,421,2.9880447009927593,100.0,42662.0,100,0.6,5000
422,422,2.995387552000466,100.0,42763.0,100,0.6,5000
423,423,3.0026041719975183,100.0,42864.0,100,0.6,5000
424,424,3.0100826709967805,100.0,42965.0,100,0.6,5000
425,425,3.0175550769927213,100.0,43066.0,100,0.6,5000
426,426,3.025065209993045,100.0,43167.0,100,0.6,5000
427,427,3.032434218999697,100.0,43268.0,100,0.6,5000
428,428,3.0396615299978293,100.0,43369.0,100,0.6,5000
429,429,3.0475442290044157,100.0,43470.0,100,0.6,5000
430,430,3.0548585159995127,100.0,43571.0,100,0.6,5000
431,431,3.0621523430017987,100.0,43672.0,100,0.6,5000
432,432,3.0705877569998847,100.0,43773.0,100,0.6,5000
433,433,3.07796009699814,100.0,43874.0,100,0.6,5000
434,434,3.0858424170000944,100.0,43975.0,100,0.6,5000
435,435,3.0936737739975797,100.0,44076.0,100,0.6,5000
436,436,3.1011696009954903,100.0,44177.0,100,0.6,5000
437,437,3.1092845690000104,100.0,44278.0,100,0.6,5000
438,438,3.1167750979948323,100.0,44379.0,100,0.6,5000
439,439,3.124529642998823,100.0,44480.0,100,0.6,5000
440,440,3.1320186279917834,100.0,44581.0,100,0.6,5000
441,441,3.13908982599969,100.0,44682.0,100,0.6,5000
442,442,3.1466067349974765,100.0,44783.0,100,0.6,5000
443,443,3.1540513560030377,100.0,44884.0,100,0.6,5000
444,444,3.161670621004305,100.0,44985.0,100,0.6,5000
445,445,3.169097537000198,100.0,45086.0,100,0.6,5000
446,446,3.176731736995862,100.0,45187.0,100,0.6,5000
447,447,3.1840131619974272,100.0,45288.0,100,0.6,5000
448,448,3.1919248640042497,100.0,45389.0,100,0.6,5000
449,449,3.1990649069921346,100.0,45490.0,100,0.6,5000
450,450,3.2062710269965464,100.0,45591.0,100,0.6,5000
451,451,3.2137629829958314,100.0,45692.0,100,0.6,5000
452,452,3.220895582999219,100.0,45793.0,100,0.6,5000
453,453,3.2287840179924387,100.0,45894.0,100,0.6,5000
454,454,3.236318167997524,100.0,45995.0,100,0.6,5000
455,455,3.2437152060010703,100.0,46096.0,100,0.6,5000
456,456,3.251283046993194,100.0,46197.0,100,0.6,5000
457,457,3.259349721003673,100.0,46298.0,100,0.6,5000
458,458,3.2665843709983164,100.0,46399.0,100,0.6,5000
459,459,3.2738069409970194,100.0,46500.0,100,0.6,5000
460,460,3.2813467669911915,100.0,46601.0,100,0.6,5000
461,461,3.288413293994381,100.0,46702.0,100,0.6,5000
462,462,3.295957351991092,100.0,46803.0,100,0.6,5000
463,463,3.3032414259942016,100.0,46904.0,100,0.6,5000
464,464,3.310832279996248,100.0,47005.0,100,0.6,5000
465,465,3.3181636049994268,100.0,47106.0,100,0.6,5000
466,466,3.3254128550033784,100.0,47207.0,100,0.6,5000
467,467,3.332521217991598,100.0,47308.0,100,0.6,5000
468,468,3.3397659939946607,100.0,47409.0,100,0.6,5000
469,469,3.3473432600003434,100.0,47510.0,100,0.6,5000
470,470,3.35441691899905,100.0,47611.0,100,0.6,5000
471,471,3.3620559550035978,100.0,47712.0,100,0.6,5000
472,472,3.369373818000895,100.0,47813.0,100,0.6,5000
473,473,3.377770541992504,100.0,47914.0,100,0.6,5000
474,474,3.3853692059929017,100.0,48015.0,100,0.6,5000
475,475,3.393102194997482,100.0,48116.0,100,0.6,5000
476,476,3.400481991993729,100.0,48217.0,100,0.6,5000
477,477,3.4078234329936095,100.0,48318.0,100,0.6,5000
478,478,3.4150893170008203,100.0,48419.0,100,0.6,5000
479,479,3.422183756993036,100.0,48520.0,100,0.6,5000
480,480,3.4298631559940986,100.0,48621.0,100,0.6,5000
481,481,3.4372110789990984,100.0,48722.0,100,0.6,5000
482,482,3.444929746998241,100.0,48823.0,100,0.6,5000
483,483,3.4523959979997016,100.0,48924.0,100,0.6,5000
484,484,3.45967080599803,100.0,49025.0,100,0.6,5000
485,485,3.4669211989967152,100.0,49126.0,100,0.6,5000
486,486,3.474309776996961,100.0,49227.0,100,0.6,5000
487,487,3.4816256729973247,100.0,49328.0,100,0.6,5000
488,488,3.4886940790020162,100.0,49429.0,100,0.6,5000
489,489,3.4967713490041206,100.0,49530.0,100,0.6,5000
490,490,3.5045468430034816,100.0,49631.0,100,0.6,5000
491,491,3.5126318730035564,100.0,49732.0,100,0.6,5000
492,492,3.519740235991776,100.0,49833.0,100,0.6,5000
493,493,3.527879553003004,100.0,49934.0,100,0.6,5000
494,494,3.5352251669974066,100.0,50035.0,100,0.6,5000
495,495,3.5426918099983595,100.0,50136.0,100,0.6,5000
496,496,3.550548418003018,100.0,50237.0,100,0.6,5000
497,497,3.5584400719963014,100.0,50338.0,100,0.6,5000
498,498,3.565847566991579,100.0,50439.0,100,0.6,5000
499,499,3.5739369350048946,100.0,50540.0,100,0.6,5000
500,500,3.582685536995996,100.0,50641.0,100,0.6,5000
501,501,3.5920818250015145,100.0,50742.0,100,0.6,5000
502,502,3.6011920780001674,100.0,50843.0,100,0.6,5000
503,503,3.6105412649922073,100.0,50944.0,100,0.6,5000
504,504,3.61984075899818,100.0,51045.0,100,0.6,5000
505,505,3.628902634998667,100.0,51146.0,100,0.6,5000
506,506,3.6378651879931567,100.0,51247.0,100,0.6,5000
507,507,3.646840350003913,100.0,51348.0,100,0.6,5000
508,508,3.6556760169914924,100.0,51449.0,100,0.6,5000
509,509,3.6641064080031356,100.0,51550.0,100,0.6,5000
510,510,3.6728524079953786,100.0,51651.0,100,0.6,5000
511,511,3.681256101001054,100.0,51752.0,100,0.6,5000
512,512,3.689398621005239,100.0,51853.0,100,0.6,5000
513,513,3.7066311550006503,100.0,51954.0,100,0.6,5000
514,514,3.7148903460038127,100.0,52055.0,100,0.6,5000
515,515,3.723081916992669,100.0,52156.0,100,0.6,5000
516,516,3.7320847770024557,100.0,52257.0,100,0.6,5000
517,517,3.741609991004225,100.0,52358.0,100,0.6,5000
518,518,3.7506774319917895,100.0,52459.0,100,0.6,5000
519,519,3.7589596360048745,100.0,52560.0,100,0.6,5000
520,520,3.7671804379933747,100.0,52661.0,100,0.6,5000
521,521,3.775509778992273,100.0,52762.0,100,0.6,5000
522,522,3.7832297809945885,100.0,52863.0,100,0.6,5000
523,523,3.7910494300012942,100.0,52964.0,100,0.6,5000
524,524,3.798524868005188,100.0,53065.0,100,0.6,5000
525,525,3.805928468995262,100.0,53166.0,100,0.6,5000
526,526,3.813683956002933,100.0,53267.0,100,0.6,5000
527,527,3.8210652749985456,100.0,53368.0,100,0.6,5000
528,528,3.8289455240010284,100.0,53469.0,100,0.6,5000
529,529,3.8364698399964254,100.0,53570.0,100,0.6,5000
530,530,3.844181235996075,100.0,53671.0,100,0.6,5000
531,531,3.8516743410000345,100.0,53772.0,100,0.6,5000
532,532,3.859226625994779,100.0,53873.0,100,0.6,5000
533,533,3.8664658429916017,100.0,53974.0,100,0.6,5000
534,534,3.874993606004864,100.0,54075.0,100,0.6,5000
535,535,3.8835821770044276,100.0,54176.0,100,0.6,5000
536,536,3.8915955550037324,100.0,54277.0,100,0.6,5000
537,537,3.8993309069919633,100.0,54378.0,100,0.6,5000
538,538,3.9072633239993593,100.0,54479.0,100,0.6,5000
539,539,3.9146047399990493,100.0,54580.0,100,0.6,5000
540,540,3.9219207940041088,100.0,54681.0,100,0.6,5000
541,541,3.9296358349965885,100.0,54782.0,100,0.6,5000
542,542,3.937130502992659,100.0,54883.0,100,0.6,5000
543,543,3.9449171150045004,100.0,54984.0,100,0.6,5000
544,544,3.952365320001263,100.0,55085.0,100,0.6,5000
545,545,3.9598073810047936,100.0,55186.0,100,0.6,5000
546,546,3.967393290004111,100.0,55287.0,100,0.6,5000
547,547,3.974821850992157,100.0,55388.0,100,0.6,5000
548,548,3.9822879290004494,100.0,55489.0,100,0.6,5000
549,549,3.9897579660027986,100.0,55590.0,100,0.6,5000
550,550,3.9976521549979225,100.0,55691.0,100,0.6,5000
551,551,4.004857556996285,100.0,55792.0,100,0.6,5000
552,552,4.012703714004601,100.0,55893.0,100,0.6,5000
553,553,4.020311430998845,100.0,55994.0,100,0.6,5000
554,554,4.0285675339982845,100.0,56095.0,100,0.6,5000
555,555,4.036139104995527,100.0,56196.0,100,0.6,5000
556,556,4.043810752991703,100.0,56297.0,100,0.6,5000
557,557,4.051780962996418,100.0,56398.0,100,0.6,5000
558,558,4.0595098699996015,100.0,56499.0,100,0.6,5000
559,559,4.06703488099447,100.0,56600.0,100,0.6,5000
560,560,4.074854434991721,100.0,56701.0,100,0.6,5000
561,561,4.082379161001882,100.0,56802.0,100,0.6,5000
562,562,4.0897463470028015,100.0,56903.0,100,0.6,5000
563,563,4.097593436992611,100.0,57004.0,100,0.6,5000
564,564,4.105016654997598,100.0,57105.0,100,0.6,5000
565,565,4.1128043069911655,100.0,57206.0,100,0.6,5000
566,566,4.121364731996437,100.0,57307.0,100,0.6,5000
567,567,4.129839942994295,100.0,57408.0,100,0.6,5000
568,568,4.137935866005137,100.0,57509.0,100,0.6,5000
569,569,4.146032315999037,100.0,57610.0,100,0.6,5000
570,570,4.153710844999296,100.0,57711.0,100,0.6,5000
571,571,4.161447395992582,100.0,57812.0,100,0.6,5000
572,572,4.1688499089941615,100.0,57913.0,100,0.6,5000
573,573,4.1763079869997455,100.0,58014.0,100,0.6,5000
574,574,4.18574713000271,100.0,58115.0,100,0.6,5000
575,575,4.193520453991368,100.0,58216.0,100,0.6,5000
576,576,4.201775177003583,100.0,58317.0,100,0.6,5000
577,577,4.21028930900502,100.0,58418.0,100,0.6,5000
578,578,4.217969807999907,100.0,58519.0,100,0.6,5000
579,579,4.225875333999284,100.0,58620.0,100,0.6,5000
580,580,4.233565357993939,100.0,58721.0,100,0.6,5000
581,581,4.240973577994737,100.0,58822.0,100,0.6,5000
582,582,4.248675968992757,100.0,58923.0,100,0.6,5000
583,583,4.2562884829967516,100.0,59024.0,100,0.6,5000
584,584,4.264736769997398,100.0,59125.0,100,0.6,5000
585,585,4.273773431996233,100.0,59226.0,100,0.6,5000
586,586,4.281774079994648,100.0,59327.0,100,0.6,5000
587,587,4.290303838002728,100.0,59428.0,100,0.6,5000
588,588,4.297977666996303,100.0,59529.0,100,0.6,5000
589,589,4.305260453998926,100.0,59630.0,100,0.6,5000
590,590,4.313084772002185,100.0,59731.0,100,0.6,5000
591,591,4.32059377800033,100.0,59832.0,100,0.6,5000
592,592,4.328525377000915,100.0,59933.0,100,0.6,5000
593,593,4.335888535992126,100.0,60034.0,100,0.6,5000
594,594,4.343407530992408,100.0,60135.0,100,0.6,5000
595,595,4.350962370997877,100.0,60236.0,100,0.6,5000
596,596,4.358509843994398,100.0,60337.0,100,0.6,5000
597,597,4.365675433000433,100.0,60438.0,100,0.6,5000
598,598,4.373046260996489,100.0,60539.0,100,0.6,5000
599,599,4.380890009997529,100.0,60640.0,100,0.6,5000
600,600,4.388469861994963,100.0,60741.0,100,0.6,5000
601,601,4.396540767993429,100.0,60842.0,100,0.6,5000
602,602,4.4041512069961755,100.0,60943.0,100,0.6,5000
603,603,4.4117148899968015,100.0,61044.0,100,0.6,5000
604,604,4.419078988998081,100.0,61145.0,100,0.6,5000
605,605,4.427176432000124,100.0,61246.0,100,0.6,5000
606,606,4.434853179991478,100.0,61347.0,100,0.6,5000
607,607,4.4426393469912,100.0,61448.0,100,0.6,5000
608,608,4.450333325003157,100.0,61549.0,100,0.6,5000
609,609,4.457971134994295,100.0,61650.0,100,0.6,5000
610,610,4.465443049004534,100.0,61751.0,100,0.6,5000
611,611,4.472958265003399,100.0,61852.0,100,0.6,5000
612,612,4.480495397991035,100.0,61953.0,100,0.6,5000
613,613,4.487849012992228,100.0,62054.0,100,0.6,5000
614,614,4.495308227997157,100.0,62155.0,100,0.6,5000
615,615,4.502824720999342,100.0,62256.0,100,0.6,5000
616,616,4.510363002991653,100.0,62357.0,100,0.6,5000
617,617,4.518264307000209,100.0,62458.0,100,0.6,5000
618,618,4.525771753993467,100.0,62559.0,100,0.6,5000
619,619,4.53324740199605,100.0,62660.0,100,0.6,5000
620,620,4.540751007996732,100.0,62761.0,100,0.6,5000
621,621,4.548657088002074,100.0,62862.0,100,0.6,5000
622,622,4.556348917001742,100.0,62963.0,100,0.6,5000
623,623,4.563879412002279,100.0,63064.0,100,0.6,5000
624,624,4.57139637999353,100.0,63165.0,100,0.6,5000
625,625,4.579192959994543,100.0,63266.0,100,0.6,5000
626,626,4.58655710000312,100.0,63367.0,100,0.6,5000
627,627,4.594269280991284,100.0,63468.0,100,0.6,5000
628,628,4.6015560359956,100.0,63569.0,100,0.6,5000
629,629,4.6090030490013305,100.0,63670.0,100,0.6,5000
630,630,4.616571525999461,100.0,63771.0,100,0.6,5000
631,631,4.624098326996318,100.0,63872.0,100,0.6,5000
632,632,4.631775066998671,100.0,63973.0,100,0.6,5000
633,633,4.640048828005092,100.0,64074.0,100,0.6,5000
634,634,4.648456360999262,100.0,64175.0,100,0.6,5000
635,635,4.656325257004937,100.0,64276.0,100,0.6,5000
636,636,4.66499396499421,100.0,64377.0,100,0.6,5000
637,637,4.67246025899658,100.0,64478.0,100,0.6,5000
638,638,4.680563596994034,100.0,64579.0,100,0.6,5000
639,639,4.688040095992619,100.0,64680.0,100,0.6,5000
640,640,4.695639333003783,100.0,64781.0,100,0.6,5000
641,641,4.703209279992734,100.0,64882.0,100,0.6,5000
642,642,4.711101683002198,100.0,64983.0,100,0.6,5000
643,643,4.718451136999647,100.0,65084.0,100,0.6,5000
644,644,4.72611046199745,100.0,65185.0,100,0.6,5000
645,645,4.733585444992059,100.0,65286.0,100,0.6,5000
646,646,4.741154503994039,100.0,65387.0,100,0.6,5000
647,647,4.748778455003048,100.0,65488.0,100,0.6,5000
648,648,4.7562331709923455,100.0,65589.0,100,0.6,5000
649,649,4.76413811299426,100.0,65690.0,100,0.6,5000
650,650,4.7719979459943715,100.0,65791.0,100,0.6,5000
651,651,4.779798710995237,100.0,65892.0,100,0.6,5000
652,652,4.787417519997689,100.0,65993.0,100,0.6,5000
653,653,4.795795983998687,100.0,66094.0,100,0.6,5000
654,654,4.804101190995425,100.0,66195.0,100,0.6,5000
655,655,4.811907663999591,100.0,66296.0,100,0.6,5000
656,656,4.819509609995293,100.0,66397.0,100,0.6,5000
657,657,4.827204211003846,100.0,66498.0,100,0.6,5000
658,658,4.834781102996203,100.0,66599.0,100,0.6,5000
659,659,4.842314711000654,100.0,66700.0,100,0.6,5000
660,660,4.849882758004242,100.0,66801.0,100,0.6,5000
661,661,4.857584529003361,100.0,66902.0,100,0.6,5000
662,662,4.8664773469936335,100.0,67003.0,100,0.6,5000
663,663,4.874810808993061,100.0,67104.0,100,0.6,5000
664,664,4.882958856993355,100.0,67205.0,100,0.6,5000
665,665,4.890859684994211,100.0,67306.0,100,0.6,5000
666,666,4.898182099001133,100.0,67407.0,100,0.6,5000
667,667,4.905588141991757,100.0,67508.0,100,0.6,5000
668,668,4.913518899003975,100.0,67609.0,100,0.6,5000
669,669,4.921366063004825,100.0,67710.0,100,0.6,5000
670,670,4.929192818002775,100.0,67811.0,100,0.6,5000
671,671,4.936600550994626,100.0,67912.0,100,0.6,5000
672,672,4.944164158994681,100.0,68013.0,100,0.6,5000
673,673,4.951530386999366,100.0,68114.0,100,0.6,5000
674,674,4.958971101994393,100.0,68215.0,100,0.6,5000
675,675,4.9662085549935,100.0,68316.0,100,0.6,5000
676,676,4.973435360996518,100.0,68417.0,100,0.6,5000
677,677,4.980990374999237,100.0,68518.0,100,0.6,5000
678,678,4.988234478994855,100.0,68619.0,100,0.6,5000
679,679,4.995788749991334,100.0,68720.0,100,0.6,5000
680,680,5.003079515998252,100.0,68821.0,100,0.6,5000
681,681,5.010562580995611,100.0,68922.0,100,0.6,5000
682,682,5.017934406991117,100.0,69023.0,100,0.6,5000
683,683,5.025384199994733,100.0,69124.0,100,0.6,5000
684,684,5.032844279994606,100.0,69225.0,100,0.6,5000
685,685,5.040764984994894,100.0,69326.0,100,0.6,5000
686,686,5.048816590991919,100.0,69427.0,100,0.6,5000
687,687,5.056252783993841,100.0,69528.0,100,0.6,5000
688,688,5.063727229993674,100.0,69629.0,100,0.6,5000
689,689,5.071097434993135,100.0,69730.0,100,0.6,5000
690,690,5.078503365002689,100.0,69831.0,100,0.6,5000
