,Iteration,Time,Fitness,FEvals,Population Size,Mutation Rate,max_iters
0,0,0.0018265609978698194,555.0,100.0,100,0.6,2500.0
1,1,0.01171857098233886,782.0,202.0,100,0.6,2500.0
2,2,0.021649750997312367,833.0,304.0,100,0.6,2500.0
3,3,0.03208471299149096,833.0,405.0,100,0.6,2500.0
4,4,0.03804442100226879,833.0,506.0,100,0.6,2500.0
5,5,0.048131530988030136,833.0,607.0,100,0.6,2500.0
6,6,0.05397165898466483,860.0,709.0,100,0.6,2500.0
7,7,0.05987177399219945,860.0,810.0,100,0.6,2500.0
8,8,0.06640339197474532,860.0,911.0,100,0.6,2500.0
9,9,0.076193899003556,867.0,1013.0,100,0.6,2500.0
10,10,0.08280085798469372,867.0,1114.0,100,0.6,2500.0
11,11,0.08886733397957869,871.0,1216.0,100,0.6,2500.0
12,12,0.09506813299958594,899.0,1318.0,100,0.6,2500.0
13,13,0.10161070700269192,899.0,1419.0,100,0.6,2500.0
14,14,0.10749511499307118,899.0,1520.0,100,0.6,2500.0
15,15,0.11363764200359583,899.0,1621.0,100,0.6,2500.0
16,16,0.11993450598674826,917.0,1723.0,100,0.6,2500.0
17,17,0.13021654999465682,917.0,1824.0,100,0.6,2500.0
18,18,0.13622396098799072,917.0,1925.0,100,0.6,2500.0
19,19,0.1420875710027758,925.0,2027.0,100,0.6,2500.0
20,20,0.14816794299986213,925.0,2128.0,100,0.6,2500.0
21,21,0.15401900999131612,925.0,2229.0,100,0.6,2500.0
22,22,0.1598612609959673,925.0,2330.0,100,0.6,2500.0
23,23,0.16593426498002373,931.0,2432.0,100,0.6,2500.0
24,24,0.1716920199978631,931.0,2533.0,100,0.6,2500.0
25,25,0.17742255897610448,931.0,2634.0,100,0.6,2500.0
26,26,0.18342830499750562,931.0,2735.0,100,0.6,2500.0
27,27,0.18932081499951892,931.0,2836.0,100,0.6,2500.0
28,28,0.19527474397909828,932.0,2938.0,100,0.6,2500.0
29,29,0.20115911299944855,932.0,3039.0,100,0.6,2500.0
30,30,0.2070304199878592,932.0,3140.0,100,0.6,2500.0
31,31,0.21305017298436724,945.0,3242.0,100,0.6,2500.0
32,32,0.21905617899028584,945.0,3343.0,100,0.6,2500.0
33,33,0.22984984598588198,945.0,3444.0,100,0.6,2500.0
34,34,0.2358051670016721,945.0,3545.0,100,0.6,2500.0
35,35,0.242969719984103,945.0,3646.0,100,0.6,2500.0
36,36,0.2496861509862356,945.0,3747.0,100,0.6,2500.0
37,37,0.2561375789809972,945.0,3848.0,100,0.6,2500.0
38,38,0.26290925199282356,945.0,3949.0,100,0.6,2500.0
39,39,0.26938970998162404,945.0,4050.0,100,0.6,2500.0
40,40,0.27577290797489695,945.0,4151.0,100,0.6,2500.0
41,41,0.28254587500123307,945.0,4252.0,100,0.6,2500.0
42,42,0.28921258699847385,945.0,4353.0,100,0.6,2500.0
43,43,0.2958383329969365,945.0,4454.0,100,0.6,2500.0
44,44,0.3024009299988393,945.0,4555.0,100,0.6,2500.0
45,45,0.30889173300238326,945.0,4656.0,100,0.6,2500.0
46,46,0.31536184399737976,945.0,4757.0,100,0.6,2500.0
47,47,0.3218374029966071,945.0,4858.0,100,0.6,2500.0
48,48,0.32816239100066014,945.0,4959.0,100,0.6,2500.0
49,49,0.3342984889750369,945.0,5060.0,100,0.6,2500.0
50,50,0.34031087497714907,945.0,5161.0,100,0.6,2500.0
51,51,0.3467105359886773,945.0,5262.0,100,0.6,2500.0
52,52,0.3532695989997592,945.0,5363.0,100,0.6,2500.0
53,53,0.3597060979809612,945.0,5464.0,100,0.6,2500.0
54,54,0.36604523297864944,945.0,5565.0,100,0.6,2500.0
55,55,0.37192126500303857,945.0,5666.0,100,0.6,2500.0
56,56,0.37797508999938145,945.0,5767.0,100,0.6,2500.0
57,57,0.384168882999802,945.0,5868.0,100,0.6,2500.0
58,58,0.3901760909939185,945.0,5969.0,100,0.6,2500.0
59,59,0.3968857199943159,945.0,6070.0,100,0.6,2500.0
60,60,0.4029106529778801,945.0,6171.0,100,0.6,2500.0
61,61,0.40885472498484887,945.0,6272.0,100,0.6,2500.0
62,62,0.4150446839921642,945.0,6373.0,100,0.6,2500.0
63,63,0.42109199898550287,945.0,6474.0,100,0.6,2500.0
64,64,0.4272685339965392,945.0,6575.0,100,0.6,2500.0
65,65,0.438011769001605,945.0,6676.0,100,0.6,2500.0
66,66,0.44415505198412575,945.0,6777.0,100,0.6,2500.0
67,67,0.45015872397925705,945.0,6878.0,100,0.6,2500.0
68,68,0.45624910699552856,945.0,6979.0,100,0.6,2500.0
69,69,0.46259150200057775,945.0,7080.0,100,0.6,2500.0
70,70,0.46852816999307834,945.0,7181.0,100,0.6,2500.0
71,71,0.4743798229901586,945.0,7282.0,100,0.6,2500.0
72,72,0.48111399897607043,945.0,7383.0,100,0.6,2500.0
73,73,0.48719649499980733,945.0,7484.0,100,0.6,2500.0
74,74,0.4930169459839817,945.0,7585.0,100,0.6,2500.0
75,75,0.49906251797801815,945.0,7686.0,100,0.6,2500.0
76,76,0.5049062079924624,945.0,7787.0,100,0.6,2500.0
77,77,0.5107668479904532,945.0,7888.0,100,0.6,2500.0
78,78,0.5167929119779728,945.0,7989.0,100,0.6,2500.0
79,79,0.5224886349751614,945.0,8090.0,100,0.6,2500.0
80,80,0.5286201690032613,945.0,8191.0,100,0.6,2500.0
81,81,0.534586784982821,945.0,8292.0,100,0.6,2500.0
82,82,0.5404194750008173,945.0,8393.0,100,0.6,2500.0
83,83,0.5464260609878693,945.0,8494.0,100,0.6,2500.0
84,84,0.552275722991908,945.0,8595.0,100,0.6,2500.0
85,85,0.558116585976677,945.0,8696.0,100,0.6,2500.0
86,86,0.5642489820020273,945.0,8797.0,100,0.6,2500.0
87,87,0.5700209100032225,945.0,8898.0,100,0.6,2500.0
88,88,0.5756658989994321,945.0,8999.0,100,0.6,2500.0
89,89,0.5819513339956757,945.0,9100.0,100,0.6,2500.0
90,90,0.5881350739800837,945.0,9201.0,100,0.6,2500.0
91,91,0.5947173979948275,945.0,9302.0,100,0.6,2500.0
92,92,0.600670760992216,945.0,9403.0,100,0.6,2500.0
93,93,0.6076458229799755,945.0,9504.0,100,0.6,2500.0
94,94,0.6139566579950042,945.0,9605.0,100,0.6,2500.0
95,95,0.619682593998732,945.0,9706.0,100,0.6,2500.0
96,96,0.6254590569878928,945.0,9807.0,100,0.6,2500.0
97,97,0.6313990089984145,945.0,9908.0,100,0.6,2500.0
98,98,0.6373052679991815,945.0,10009.0,100,0.6,2500.0
99,99,0.643077701999573,945.0,10110.0,100,0.6,2500.0
100,100,0.6491831099847332,945.0,10211.0,100,0.6,2500.0
101,101,0.6551307069894392,945.0,10312.0,100,0.6,2500.0
102,102,0.6610152979847044,945.0,10413.0,100,0.6,2500.0
103,103,0.6671198539843317,945.0,10514.0,100,0.6,2500.0
104,104,0.6728911599784624,945.0,10615.0,100,0.6,2500.0
105,105,0.6790141849778593,945.0,10716.0,100,0.6,2500.0
106,106,0.6850034059898462,945.0,10817.0,100,0.6,2500.0
107,107,0.6907408089900855,945.0,10918.0,100,0.6,2500.0
108,108,0.6966907579917461,945.0,11019.0,100,0.6,2500.0
109,109,0.7024047589802649,945.0,11120.0,100,0.6,2500.0
110,110,0.7081770339864306,946.0,11222.0,100,0.6,2500.0
111,111,0.7144058219855651,946.0,11323.0,100,0.6,2500.0
112,112,0.7205452979833353,946.0,11424.0,100,0.6,2500.0
113,113,0.7264254179899581,946.0,11525.0,100,0.6,2500.0
114,114,0.7335917879827321,946.0,11626.0,100,0.6,2500.0
115,115,0.7399062140029855,946.0,11727.0,100,0.6,2500.0
116,116,0.7459001529787201,946.0,11828.0,100,0.6,2500.0
117,117,0.7521064819884486,946.0,11929.0,100,0.6,2500.0
118,118,0.7581198019906878,946.0,12030.0,100,0.6,2500.0
119,119,0.7642901389917824,946.0,12131.0,100,0.6,2500.0
120,120,0.7702033319801558,946.0,12232.0,100,0.6,2500.0
121,121,0.7759275269927457,946.0,12333.0,100,0.6,2500.0
122,122,0.7819541009957902,946.0,12434.0,100,0.6,2500.0
123,123,0.7878596989903599,946.0,12535.0,100,0.6,2500.0
124,124,0.7936593649792485,946.0,12636.0,100,0.6,2500.0
125,125,0.7996993199922144,946.0,12737.0,100,0.6,2500.0
126,126,0.805588135990547,946.0,12838.0,100,0.6,2500.0
127,127,0.8115313279849943,946.0,12939.0,100,0.6,2500.0
128,128,0.8174878879799508,946.0,13040.0,100,0.6,2500.0
129,129,0.8284654669987503,946.0,13141.0,100,0.6,2500.0
130,130,0.8343826659838669,946.0,13242.0,100,0.6,2500.0
131,131,0.8404125789820682,946.0,13343.0,100,0.6,2500.0
132,132,0.8463581480027642,946.0,13444.0,100,0.6,2500.0
133,133,0.852613005990861,946.0,13545.0,100,0.6,2500.0
134,134,0.8585660529788584,946.0,13646.0,100,0.6,2500.0
135,135,0.8646598219929729,946.0,13747.0,100,0.6,2500.0
136,136,0.870583469979465,946.0,13848.0,100,0.6,2500.0
137,137,0.8765730570012238,946.0,13949.0,100,0.6,2500.0
138,138,0.8829279659839813,946.0,14050.0,100,0.6,2500.0
139,139,0.8892076349875424,946.0,14151.0,100,0.6,2500.0
140,140,0.8952804069849662,946.0,14252.0,100,0.6,2500.0
141,141,0.90126759299892,946.0,14353.0,100,0.6,2500.0
142,142,0.9071297219779808,946.0,14454.0,100,0.6,2500.0
143,143,0.9132128689961974,946.0,14555.0,100,0.6,2500.0
144,144,0.9191696869966108,946.0,14656.0,100,0.6,2500.0
145,145,0.9252737379865721,946.0,14757.0,100,0.6,2500.0
146,146,0.9313832269981503,946.0,14858.0,100,0.6,2500.0
147,147,0.9371149529761169,946.0,14959.0,100,0.6,2500.0
148,148,0.9429547939798795,946.0,15060.0,100,0.6,2500.0
149,149,0.9489873909915332,946.0,15161.0,100,0.6,2500.0
150,150,0.9548000799841247,946.0,15262.0,100,0.6,2500.0
151,151,0.9608492749975994,946.0,15363.0,100,0.6,2500.0
152,152,0.9668745239905547,946.0,15464.0,100,0.6,2500.0
153,153,0.972635812999215,946.0,15565.0,100,0.6,2500.0
154,154,0.9786439169838559,946.0,15666.0,100,0.6,2500.0
155,155,0.9845755089772865,946.0,15767.0,100,0.6,2500.0
156,156,0.9903976619825698,946.0,15868.0,100,0.6,2500.0
157,157,0.9964406479848549,946.0,15969.0,100,0.6,2500.0
158,158,1.002282043977175,946.0,16070.0,100,0.6,2500.0
159,159,1.0085824269917794,946.0,16171.0,100,0.6,2500.0
160,160,1.0150503089826088,946.0,16272.0,100,0.6,2500.0
161,161,1.0210872640018351,946.0,16373.0,100,0.6,2500.0
162,162,1.0270716049999464,946.0,16474.0,100,0.6,2500.0
163,163,1.0333156529814005,946.0,16575.0,100,0.6,2500.0
164,164,1.0391583750024438,946.0,16676.0,100,0.6,2500.0
165,165,1.0452594679954927,946.0,16777.0,100,0.6,2500.0
166,166,1.051152314990759,946.0,16878.0,100,0.6,2500.0
167,167,1.0570845349866431,946.0,16979.0,100,0.6,2500.0
168,168,1.0630252929986455,946.0,17080.0,100,0.6,2500.0
169,169,1.0690529849962331,946.0,17181.0,100,0.6,2500.0
170,170,1.0755102509865537,946.0,17282.0,100,0.6,2500.0
171,171,1.0822499259957112,946.0,17383.0,100,0.6,2500.0
172,172,1.0892268149764277,946.0,17484.0,100,0.6,2500.0
173,173,1.0969230749760754,946.0,17585.0,100,0.6,2500.0
174,174,1.1039597089984454,946.0,17686.0,100,0.6,2500.0
175,175,1.1105298530019354,946.0,17787.0,100,0.6,2500.0
176,176,1.1166161709988955,946.0,17888.0,100,0.6,2500.0
177,177,1.1224042160029057,946.0,17989.0,100,0.6,2500.0
178,178,1.128638398979092,946.0,18090.0,100,0.6,2500.0
179,179,1.135227708000457,946.0,18191.0,100,0.6,2500.0
180,180,1.1411807139811572,946.0,18292.0,100,0.6,2500.0
181,181,1.1471717129752506,946.0,18393.0,100,0.6,2500.0
182,182,1.153068968997104,946.0,18494.0,100,0.6,2500.0
183,183,1.1590861389995553,946.0,18595.0,100,0.6,2500.0
184,184,1.1651200630003586,946.0,18696.0,100,0.6,2500.0
185,185,1.1709556209971197,946.0,18797.0,100,0.6,2500.0
186,186,1.1767686090024654,946.0,18898.0,100,0.6,2500.0
187,187,1.1828084279841278,946.0,18999.0,100,0.6,2500.0
188,188,1.1886706569930539,946.0,19100.0,100,0.6,2500.0
189,189,1.1946759659913369,946.0,19201.0,100,0.6,2500.0
190,190,1.2006346989946906,946.0,19302.0,100,0.6,2500.0
191,191,1.2064047869935166,946.0,19403.0,100,0.6,2500.0
192,192,1.2125569049967453,946.0,19504.0,100,0.6,2500.0
193,193,1.218357791978633,946.0,19605.0,100,0.6,2500.0
194,194,1.2242874589865096,946.0,19706.0,100,0.6,2500.0
195,195,1.2304125109803863,946.0,19807.0,100,0.6,2500.0
196,196,1.236473611992551,946.0,19908.0,100,0.6,2500.0
197,197,1.2423377119994257,946.0,20009.0,100,0.6,2500.0
198,198,1.2485676209907979,946.0,20110.0,100,0.6,2500.0
199,199,1.255058940994786,946.0,20211.0,100,0.6,2500.0
200,200,1.2613314449845348,946.0,20312.0,100,0.6,2500.0
201,201,1.267864623980131,946.0,20413.0,100,0.6,2500.0
202,202,1.2738578289863653,946.0,20514.0,100,0.6,2500.0
203,203,1.2800542109762318,946.0,20615.0,100,0.6,2500.0
204,204,1.286682373000076,946.0,20716.0,100,0.6,2500.0
205,205,1.2925974050012883,946.0,20817.0,100,0.6,2500.0
206,206,1.2989631969830953,946.0,20918.0,100,0.6,2500.0
207,207,1.3054429710027762,946.0,21019.0,100,0.6,2500.0
208,208,1.3114490509906318,946.0,21120.0,100,0.6,2500.0
209,209,1.3181749029899947,946.0,21221.0,100,0.6,2500.0
210,210,1.3240939699753653,946.0,21322.0,100,0.6,2500.0
211,211,1.3304166290035937,946.0,21423.0,100,0.6,2500.0
212,212,1.336700774001656,946.0,21524.0,100,0.6,2500.0
213,213,1.3428279919899069,946.0,21625.0,100,0.6,2500.0
214,214,1.349462001991924,946.0,21726.0,100,0.6,2500.0
215,215,1.3557034699770156,946.0,21827.0,100,0.6,2500.0
216,216,1.3618628119875211,946.0,21928.0,100,0.6,2500.0
217,217,1.3682797660003416,946.0,22029.0,100,0.6,2500.0
218,218,1.3749766259861644,946.0,22130.0,100,0.6,2500.0
219,219,1.3812940469942987,946.0,22231.0,100,0.6,2500.0
220,220,1.38763386500068,946.0,22332.0,100,0.6,2500.0
221,221,1.39364675298566,946.0,22433.0,100,0.6,2500.0
222,222,1.4004452480003238,946.0,22534.0,100,0.6,2500.0
223,223,1.4063478719908744,946.0,22635.0,100,0.6,2500.0
224,224,1.4124811469810084,946.0,22736.0,100,0.6,2500.0
225,225,1.4188167739775963,946.0,22837.0,100,0.6,2500.0
226,226,1.4247855139838066,946.0,22938.0,100,0.6,2500.0
227,227,1.431444832996931,946.0,23039.0,100,0.6,2500.0
228,228,1.43767135500093,946.0,23140.0,100,0.6,2500.0
229,229,1.4437418239831459,946.0,23241.0,100,0.6,2500.0
230,230,1.4503305119869765,946.0,23342.0,100,0.6,2500.0
231,231,1.4566412330023013,946.0,23443.0,100,0.6,2500.0
232,232,1.4629899889987428,946.0,23544.0,100,0.6,2500.0
233,233,1.4692323049821425,946.0,23645.0,100,0.6,2500.0
234,234,1.474905396986287,946.0,23746.0,100,0.6,2500.0
235,235,1.4816928099899087,946.0,23847.0,100,0.6,2500.0
236,236,1.4877879830019083,946.0,23948.0,100,0.6,2500.0
237,237,1.493911603000015,946.0,24049.0,100,0.6,2500.0
238,238,1.5010845520009752,946.0,24150.0,100,0.6,2500.0
239,239,1.506847102980828,946.0,24251.0,100,0.6,2500.0
240,240,1.5131076689867768,946.0,24352.0,100,0.6,2500.0
241,241,1.519302496977616,946.0,24453.0,100,0.6,2500.0
242,242,1.5251677109918091,946.0,24554.0,100,0.6,2500.0
243,243,1.531445447995793,946.0,24655.0,100,0.6,2500.0
244,244,1.5372149350005202,946.0,24756.0,100,0.6,2500.0
245,245,1.5430344299820717,946.0,24857.0,100,0.6,2500.0
246,246,1.5492518800019752,946.0,24958.0,100,0.6,2500.0
247,247,1.5549597079807427,946.0,25059.0,100,0.6,2500.0
248,248,1.5609935769753065,946.0,25160.0,100,0.6,2500.0
249,249,1.5668846199987456,946.0,25261.0,100,0.6,2500.0
250,250,1.572547116986243,946.0,25362.0,100,0.6,2500.0
251,251,1.5784388089959975,946.0,25463.0,100,0.6,2500.0
252,252,1.5854400379757863,946.0,25564.0,100,0.6,2500.0
253,253,1.5913195409812033,946.0,25665.0,100,0.6,2500.0
254,254,1.5977666809922084,946.0,25766.0,100,0.6,2500.0
255,255,1.6037019839859568,946.0,25867.0,100,0.6,2500.0
256,256,1.6097512059786823,946.0,25968.0,100,0.6,2500.0
257,257,1.6219320370000787,946.0,26069.0,100,0.6,2500.0
258,258,1.6278791239892598,946.0,26170.0,100,0.6,2500.0
259,259,1.6342660009977408,946.0,26271.0,100,0.6,2500.0
260,260,1.64014670799952,946.0,26372.0,100,0.6,2500.0
261,261,1.6462445939832833,946.0,26473.0,100,0.6,2500.0
262,262,1.6522360339877196,946.0,26574.0,100,0.6,2500.0
263,263,1.6584937110019382,946.0,26675.0,100,0.6,2500.0
264,264,1.6651990939863026,946.0,26776.0,100,0.6,2500.0
265,265,1.6712102029996458,946.0,26877.0,100,0.6,2500.0
266,266,1.6770573589892592,946.0,26978.0,100,0.6,2500.0
267,267,1.6831530459749047,946.0,27079.0,100,0.6,2500.0
268,268,1.689130512997508,946.0,27180.0,100,0.6,2500.0
269,269,1.695174322987441,946.0,27281.0,100,0.6,2500.0
270,270,1.7012868479941972,946.0,27382.0,100,0.6,2500.0
271,271,1.7071979259781074,946.0,27483.0,100,0.6,2500.0
272,272,1.7136633819900453,946.0,27584.0,100,0.6,2500.0
273,273,1.7195625259773806,946.0,27685.0,100,0.6,2500.0
274,274,1.7260444549901877,946.0,27786.0,100,0.6,2500.0
275,275,1.7328268229903188,946.0,27887.0,100,0.6,2500.0
276,276,1.7415603469999041,946.0,27988.0,100,0.6,2500.0
277,277,1.7481595669814851,946.0,28089.0,100,0.6,2500.0
278,278,1.7549640219949652,946.0,28190.0,100,0.6,2500.0
279,279,1.762272302992642,946.0,28291.0,100,0.6,2500.0
280,280,1.7697948220011313,946.0,28392.0,100,0.6,2500.0
281,281,1.7765995619993191,946.0,28493.0,100,0.6,2500.0
282,282,1.7832346509967465,946.0,28594.0,100,0.6,2500.0
283,283,1.7907288580026943,946.0,28695.0,100,0.6,2500.0
284,284,1.7974062119901646,946.0,28796.0,100,0.6,2500.0
285,285,1.803931800997816,946.0,28897.0,100,0.6,2500.0
286,286,1.8098712369974237,946.0,28998.0,100,0.6,2500.0
287,287,1.8164115349936765,946.0,29099.0,100,0.6,2500.0
288,288,1.8248811629891861,946.0,29200.0,100,0.6,2500.0
289,289,1.8329730729747098,946.0,29301.0,100,0.6,2500.0
290,290,1.8398007679788861,946.0,29402.0,100,0.6,2500.0
291,291,1.8464253889978863,946.0,29503.0,100,0.6,2500.0
292,292,1.8539219950034749,946.0,29604.0,100,0.6,2500.0
293,293,1.861656918976223,946.0,29705.0,100,0.6,2500.0
294,294,1.8687841289793141,946.0,29806.0,100,0.6,2500.0
295,295,1.8756996269803494,946.0,29907.0,100,0.6,2500.0
296,296,1.8825903999968432,946.0,30008.0,100,0.6,2500.0
297,297,1.890339142002631,946.0,30109.0,100,0.6,2500.0
298,298,1.8975989799946547,946.0,30210.0,100,0.6,2500.0
299,299,1.904684686975088,946.0,30311.0,100,0.6,2500.0
300,300,1.9122544679848943,946.0,30412.0,100,0.6,2500.0
301,301,1.919108090980444,946.0,30513.0,100,0.6,2500.0
302,302,1.9255743859976064,946.0,30614.0,100,0.6,2500.0
303,303,1.9320456470013596,946.0,30715.0,100,0.6,2500.0
304,304,1.9381568119861186,946.0,30816.0,100,0.6,2500.0
305,305,1.944634571991628,946.0,30917.0,100,0.6,2500.0
306,306,1.9524450280005112,946.0,31018.0,100,0.6,2500.0
307,307,1.9589148130035028,946.0,31119.0,100,0.6,2500.0
308,308,1.9652978959784377,946.0,31220.0,100,0.6,2500.0
309,309,1.971649504994275,946.0,31321.0,100,0.6,2500.0
310,310,1.9779862299910747,946.0,31422.0,100,0.6,2500.0
311,311,1.9847143739752937,946.0,31523.0,100,0.6,2500.0
312,312,1.9907292329880875,946.0,31624.0,100,0.6,2500.0
313,313,1.9968386589898728,946.0,31725.0,100,0.6,2500.0
314,314,2.0035435109748505,946.0,31826.0,100,0.6,2500.0
315,315,2.01129265097552,946.0,31927.0,100,0.6,2500.0
316,316,2.0182940639788285,946.0,32028.0,100,0.6,2500.0
317,317,2.025395069998922,946.0,32129.0,100,0.6,2500.0
318,318,2.032359220989747,946.0,32230.0,100,0.6,2500.0
319,319,2.039505739987362,946.0,32331.0,100,0.6,2500.0
320,320,2.045786105998559,946.0,32432.0,100,0.6,2500.0
321,321,2.051862247986719,946.0,32533.0,100,0.6,2500.0
322,322,2.0578713309951127,946.0,32634.0,100,0.6,2500.0
323,323,2.0641489539993927,946.0,32735.0,100,0.6,2500.0
324,324,2.0701106499764137,946.0,32836.0,100,0.6,2500.0
325,325,2.0758992089831736,946.0,32937.0,100,0.6,2500.0
326,326,2.0822318179998547,946.0,33038.0,100,0.6,2500.0
327,327,2.0882210849958938,946.0,33139.0,100,0.6,2500.0
328,328,2.094474013982108,946.0,33240.0,100,0.6,2500.0
329,329,2.10059384899796,946.0,33341.0,100,0.6,2500.0
330,330,2.106412475986872,946.0,33442.0,100,0.6,2500.0
331,331,2.112575437000487,946.0,33543.0,100,0.6,2500.0
332,332,2.118563272000756,946.0,33644.0,100,0.6,2500.0
333,333,2.124495414987905,946.0,33745.0,100,0.6,2500.0
334,334,2.131815592991188,946.0,33846.0,100,0.6,2500.0
335,335,2.1388222929963376,946.0,33947.0,100,0.6,2500.0
336,336,2.1452033889945596,946.0,34048.0,100,0.6,2500.0
337,337,2.151765616988996,946.0,34149.0,100,0.6,2500.0
338,338,2.1589396969939116,946.0,34250.0,100,0.6,2500.0
339,339,2.1656979149847757,946.0,34351.0,100,0.6,2500.0
340,340,2.17165631998796,946.0,34452.0,100,0.6,2500.0
341,341,2.1778265189786907,946.0,34553.0,100,0.6,2500.0
342,342,2.1837832919845823,946.0,34654.0,100,0.6,2500.0
343,343,2.18977771999198,946.0,34755.0,100,0.6,2500.0
344,344,2.195946584979538,946.0,34856.0,100,0.6,2500.0
345,345,2.2019648709974717,946.0,34957.0,100,0.6,2500.0
346,346,2.2078588949807454,946.0,35058.0,100,0.6,2500.0
347,347,2.214664275001269,946.0,35159.0,100,0.6,2500.0
348,348,2.2216582909750286,946.0,35260.0,100,0.6,2500.0
349,349,2.2278745329822414,946.0,35361.0,100,0.6,2500.0
350,350,2.234598979994189,946.0,35462.0,100,0.6,2500.0
351,351,2.2409986659768037,946.0,35563.0,100,0.6,2500.0
352,352,2.247604201984359,946.0,35664.0,100,0.6,2500.0
353,353,2.253997713996796,946.0,35765.0,100,0.6,2500.0
354,354,2.260093049990246,946.0,35866.0,100,0.6,2500.0
355,355,2.266863836994162,946.0,35967.0,100,0.6,2500.0
356,356,2.2731055229960475,946.0,36068.0,100,0.6,2500.0
357,357,2.2794383199943695,946.0,36169.0,100,0.6,2500.0
358,358,2.2865490169788245,946.0,36270.0,100,0.6,2500.0
359,359,2.293765820999397,946.0,36371.0,100,0.6,2500.0
360,360,2.3009834449912887,946.0,36472.0,100,0.6,2500.0
361,361,2.3071643779985607,946.0,36573.0,100,0.6,2500.0
362,362,2.313358054001583,946.0,36674.0,100,0.6,2500.0
363,363,2.320169006998185,946.0,36775.0,100,0.6,2500.0
364,364,2.326698049000697,946.0,36876.0,100,0.6,2500.0
365,365,2.333035680989269,946.0,36977.0,100,0.6,2500.0
366,366,2.3401556619792245,946.0,37078.0,100,0.6,2500.0
367,367,2.3477885899774265,946.0,37179.0,100,0.6,2500.0
368,368,2.3545994339801837,946.0,37280.0,100,0.6,2500.0
369,369,2.361299826996401,946.0,37381.0,100,0.6,2500.0
370,370,2.368384209985379,946.0,37482.0,100,0.6,2500.0
371,371,2.375477007997688,946.0,37583.0,100,0.6,2500.0
372,372,2.382261586986715,946.0,37684.0,100,0.6,2500.0
373,373,2.3888251459866296,946.0,37785.0,100,0.6,2500.0
374,374,2.395400465000421,946.0,37886.0,100,0.6,2500.0
375,375,2.402235429995926,946.0,37987.0,100,0.6,2500.0
376,376,2.408847151993541,946.0,38088.0,100,0.6,2500.0
377,377,2.416217809979571,946.0,38189.0,100,0.6,2500.0
378,378,2.4229167040030006,946.0,38290.0,100,0.6,2500.0
379,379,2.4293328959902283,946.0,38391.0,100,0.6,2500.0
380,380,2.4368238629831467,946.0,38492.0,100,0.6,2500.0
381,381,2.444507109990809,946.0,38593.0,100,0.6,2500.0
382,382,2.4516846259939484,946.0,38694.0,100,0.6,2500.0
383,383,2.458671489992412,946.0,38795.0,100,0.6,2500.0
384,384,2.465769125003135,946.0,38896.0,100,0.6,2500.0
385,385,2.4731760869908612,946.0,38997.0,100,0.6,2500.0
386,386,2.4802284829784185,946.0,39098.0,100,0.6,2500.0
387,387,2.4875478739850223,946.0,39199.0,100,0.6,2500.0
388,388,2.493981385981897,946.0,39300.0,100,0.6,2500.0
389,389,2.500896498997463,946.0,39401.0,100,0.6,2500.0
390,390,2.507206602982478,946.0,39502.0,100,0.6,2500.0
391,391,2.5136304539919365,946.0,39603.0,100,0.6,2500.0
392,392,2.5204052339831833,946.0,39704.0,100,0.6,2500.0
393,393,2.5264011069957633,946.0,39805.0,100,0.6,2500.0
394,394,2.5329142900009174,946.0,39906.0,100,0.6,2500.0
395,395,2.5390092539892066,946.0,40007.0,100,0.6,2500.0
396,396,2.54513686397695,946.0,40108.0,100,0.6,2500.0
397,397,2.5512332069920376,946.0,40209.0,100,0.6,2500.0
398,398,2.557271644996945,946.0,40310.0,100,0.6,2500.0
399,399,2.563658300001407,946.0,40411.0,100,0.6,2500.0
400,400,2.569939398992574,946.0,40512.0,100,0.6,2500.0
401,401,2.575778714992339,946.0,40613.0,100,0.6,2500.0
402,402,2.5829932059859857,946.0,40714.0,100,0.6,2500.0
403,403,2.588985023990972,946.0,40815.0,100,0.6,2500.0
404,404,2.5952539689897094,946.0,40916.0,100,0.6,2500.0
405,405,2.6012683939770795,946.0,41017.0,100,0.6,2500.0
406,406,2.6072705189872067,946.0,41118.0,100,0.6,2500.0
407,407,2.613441437977599,946.0,41219.0,100,0.6,2500.0
408,408,2.6193387099774554,946.0,41320.0,100,0.6,2500.0
409,409,2.6252302789944224,946.0,41421.0,100,0.6,2500.0
410,410,2.631547294993652,946.0,41522.0,100,0.6,2500.0
411,411,2.6408961249981076,946.0,41623.0,100,0.6,2500.0
412,412,2.647480147978058,946.0,41724.0,100,0.6,2500.0
413,413,2.654250017978484,946.0,41825.0,100,0.6,2500.0
414,414,2.6607480839884374,946.0,41926.0,100,0.6,2500.0
415,415,2.667126529995585,946.0,42027.0,100,0.6,2500.0
416,416,2.6731313829950523,946.0,42128.0,100,0.6,2500.0
417,417,2.679307122976752,946.0,42229.0,100,0.6,2500.0
418,418,2.68554123598733,946.0,42330.0,100,0.6,2500.0
419,419,2.6914560229924973,946.0,42431.0,100,0.6,2500.0
420,420,2.698236376978457,946.0,42532.0,100,0.6,2500.0
421,421,2.7043377369991504,946.0,42633.0,100,0.6,2500.0
422,422,2.71029708898277,946.0,42734.0,100,0.6,2500.0
423,423,2.7167237690009642,946.0,42835.0,100,0.6,2500.0
424,424,2.722516039997572,946.0,42936.0,100,0.6,2500.0
425,425,2.7288321729865856,946.0,43037.0,100,0.6,2500.0
426,426,2.736073102976661,946.0,43138.0,100,0.6,2500.0
427,427,2.745720466977218,946.0,43239.0,100,0.6,2500.0
428,428,2.7529869319987483,946.0,43340.0,100,0.6,2500.0
429,429,2.7595503729826305,946.0,43441.0,100,0.6,2500.0
430,430,2.7661473889893387,946.0,43542.0,100,0.6,2500.0
431,431,2.772264236002229,946.0,43643.0,100,0.6,2500.0
432,432,2.7784371659799945,946.0,43744.0,100,0.6,2500.0
433,433,2.784655903989915,946.0,43845.0,100,0.6,2500.0
434,434,2.790918574988609,946.0,43946.0,100,0.6,2500.0
435,435,2.7972713289782405,946.0,44047.0,100,0.6,2500.0
436,436,2.8033681199885905,946.0,44148.0,100,0.6,2500.0
437,437,2.8092923009826336,946.0,44249.0,100,0.6,2500.0
438,438,2.8156466439832,946.0,44350.0,100,0.6,2500.0
439,439,2.823899774986785,946.0,44451.0,100,0.6,2500.0
440,440,2.8312003089813516,946.0,44552.0,100,0.6,2500.0
441,441,2.838237242976902,946.0,44653.0,100,0.6,2500.0
442,442,2.8449376659991685,946.0,44754.0,100,0.6,2500.0
443,443,2.851291778992163,946.0,44855.0,100,0.6,2500.0
444,444,2.8573364559852052,946.0,44956.0,100,0.6,2500.0
445,445,2.863922342978185,946.0,45057.0,100,0.6,2500.0
446,446,2.8700947990000714,946.0,45158.0,100,0.6,2500.0
447,447,2.876032565982314,946.0,45259.0,100,0.6,2500.0
448,448,2.8821959119813982,946.0,45360.0,100,0.6,2500.0
449,449,2.8883416089811362,946.0,45461.0,100,0.6,2500.0
450,450,2.8951257430016994,946.0,45562.0,100,0.6,2500.0
451,451,2.902616034989478,946.0,45663.0,100,0.6,2500.0
452,452,2.9088375159772113,946.0,45764.0,100,0.6,2500.0
453,453,2.915272282989463,946.0,45865.0,100,0.6,2500.0
454,454,2.9218585999915376,946.0,45966.0,100,0.6,2500.0
455,455,2.928248882992193,946.0,46067.0,100,0.6,2500.0
456,456,2.9345308149931952,946.0,46168.0,100,0.6,2500.0
457,457,2.9409383699821774,946.0,46269.0,100,0.6,2500.0
458,458,2.9480482429789845,946.0,46370.0,100,0.6,2500.0
459,459,2.954989199002739,946.0,46471.0,100,0.6,2500.0
460,460,2.962076439987868,946.0,46572.0,100,0.6,2500.0
461,461,2.972435937001137,946.0,46673.0,100,0.6,2500.0
462,462,2.980838112998754,946.0,46774.0,100,0.6,2500.0
463,463,2.988052489992697,946.0,46875.0,100,0.6,2500.0
464,464,2.994712971994886,946.0,46976.0,100,0.6,2500.0
465,465,3.0021300809748936,946.0,47077.0,100,0.6,2500.0
466,466,3.0091351149894763,946.0,47178.0,100,0.6,2500.0
467,467,3.01775585199357,946.0,47279.0,100,0.6,2500.0
468,468,3.025259472982725,946.0,47380.0,100,0.6,2500.0
469,469,3.0325181749940384,946.0,47481.0,100,0.6,2500.0
470,470,3.039770306990249,946.0,47582.0,100,0.6,2500.0
471,471,3.0476684529858176,946.0,47683.0,100,0.6,2500.0
472,472,3.0555051369883586,946.0,47784.0,100,0.6,2500.0
473,473,3.0634024449973367,946.0,47885.0,100,0.6,2500.0
474,474,3.0708361080032773,946.0,47986.0,100,0.6,2500.0
475,475,3.0792904019763228,946.0,48087.0,100,0.6,2500.0
476,476,3.0872177129785996,946.0,48188.0,100,0.6,2500.0
477,477,3.0950634369801264,946.0,48289.0,100,0.6,2500.0
478,478,3.1027278729889076,946.0,48390.0,100,0.6,2500.0
479,479,3.1107446620007977,946.0,48491.0,100,0.6,2500.0
480,480,3.118255697976565,946.0,48592.0,100,0.6,2500.0
481,481,3.1257111189770512,946.0,48693.0,100,0.6,2500.0
482,482,3.133642095985124,946.0,48794.0,100,0.6,2500.0
483,483,3.140845805988647,946.0,48895.0,100,0.6,2500.0
484,484,3.148722858983092,946.0,48996.0,100,0.6,2500.0
485,485,3.1560992790036835,946.0,49097.0,100,0.6,2500.0
486,486,3.163903770997422,946.0,49198.0,100,0.6,2500.0
487,487,3.1712360969977453,946.0,49299.0,100,0.6,2500.0
488,488,3.178453353000805,946.0,49400.0,100,0.6,2500.0
489,489,3.186234369990416,946.0,49501.0,100,0.6,2500.0
490,490,3.197706318984274,946.0,49602.0,100,0.6,2500.0
491,491,3.209405842993874,946.0,49703.0,100,0.6,2500.0
492,492,3.2198839630000293,946.0,49804.0,100,0.6,2500.0
493,493,3.227070778986672,946.0,49905.0,100,0.6,2500.0
494,494,3.2343923219887074,946.0,50006.0,100,0.6,2500.0
495,495,3.2411505449854303,946.0,50107.0,100,0.6,2500.0
496,496,3.2491982560022734,946.0,50208.0,100,0.6,2500.0
497,497,3.2565672629862092,946.0,50309.0,100,0.6,2500.0
498,498,3.264864511991618,946.0,50410.0,100,0.6,2500.0
499,499,3.2718130580033176,946.0,50511.0,100,0.6,2500.0
500,500,3.2793166909832507,946.0,50612.0,100,0.6,2500.0
501,501,3.286723463999806,946.0,50713.0,100,0.6,2500.0
502,502,3.294696318975184,946.0,50814.0,100,0.6,2500.0
503,503,3.3021196109766606,946.0,50915.0,100,0.6,2500.0
504,504,3.3093135739909485,946.0,51016.0,100,0.6,2500.0
505,505,3.316467810975155,946.0,51117.0,100,0.6,2500.0
506,506,3.32453834899934,946.0,51218.0,100,0.6,2500.0
507,507,3.3317976349790115,946.0,51319.0,100,0.6,2500.0
508,508,3.3391688599949703,946.0,51420.0,100,0.6,2500.0
509,509,3.3465418389823753,946.0,51521.0,100,0.6,2500.0
510,510,3.353785020997748,946.0,51622.0,100,0.6,2500.0
511,511,3.360545709001599,946.0,51723.0,100,0.6,2500.0
512,512,3.3682975959964097,946.0,51824.0,100,0.6,2500.0
513,513,3.38492682800279,946.0,51925.0,100,0.6,2500.0
514,514,3.3919388149806764,946.0,52026.0,100,0.6,2500.0
515,515,3.3992592580034398,946.0,52127.0,100,0.6,2500.0
516,516,3.4057110580033623,946.0,52228.0,100,0.6,2500.0
517,517,3.412136737984838,946.0,52329.0,100,0.6,2500.0
518,518,3.4183738220017403,946.0,52430.0,100,0.6,2500.0
519,519,3.426217784988694,946.0,52531.0,100,0.6,2500.0
520,520,3.4338079689769074,946.0,52632.0,100,0.6,2500.0
521,521,3.440317264001351,946.0,52733.0,100,0.6,2500.0
522,522,3.4467685029958375,946.0,52834.0,100,0.6,2500.0
523,523,3.453018100000918,946.0,52935.0,100,0.6,2500.0
524,524,3.459171754977433,946.0,53036.0,100,0.6,2500.0
525,525,3.4656030799960718,946.0,53137.0,100,0.6,2500.0
526,526,3.471762144996319,946.0,53238.0,100,0.6,2500.0
527,527,3.4780407109938096,946.0,53339.0,100,0.6,2500.0
528,528,3.4840581299795303,946.0,53440.0,100,0.6,2500.0
529,529,3.490856548974989,946.0,53541.0,100,0.6,2500.0
530,530,3.4979343519953545,946.0,53642.0,100,0.6,2500.0
531,531,3.506106993998401,946.0,53743.0,100,0.6,2500.0
532,532,3.5126247059961315,946.0,53844.0,100,0.6,2500.0
533,533,3.5195123119920027,946.0,53945.0,100,0.6,2500.0
534,534,3.5264227939769626,946.0,54046.0,100,0.6,2500.0
535,535,3.5350737309781834,946.0,54147.0,100,0.6,2500.0
536,536,3.541869850974763,946.0,54248.0,100,0.6,2500.0
537,537,3.548603342002025,946.0,54349.0,100,0.6,2500.0
538,538,3.555574849975528,946.0,54450.0,100,0.6,2500.0
539,539,3.563881729001878,946.0,54551.0,100,0.6,2500.0
540,540,3.570957178977551,946.0,54652.0,100,0.6,2500.0
541,541,3.5774627380014863,946.0,54753.0,100,0.6,2500.0
542,542,3.584630372002721,946.0,54854.0,100,0.6,2500.0
543,543,3.5910272369801532,946.0,54955.0,100,0.6,2500.0
544,544,3.5976034459890798,946.0,55056.0,100,0.6,2500.0
545,545,3.604111547989305,946.0,55157.0,100,0.6,2500.0
546,546,3.6104703829914797,946.0,55258.0,100,0.6,2500.0
547,547,3.617827732989099,946.0,55359.0,100,0.6,2500.0
548,548,3.625931773975026,946.0,55460.0,100,0.6,2500.0
549,549,3.6343209100014064,946.0,55561.0,100,0.6,2500.0
550,550,3.6423098809900694,946.0,55662.0,100,0.6,2500.0
551,551,3.6504342929983977,946.0,55763.0,100,0.6,2500.0
552,552,3.6582322629983537,946.0,55864.0,100,0.6,2500.0
553,553,3.665180418000091,946.0,55965.0,100,0.6,2500.0
554,554,3.6725227369752247,946.0,56066.0,100,0.6,2500.0
555,555,3.6797248919901904,946.0,56167.0,100,0.6,2500.0
556,556,3.686618122999789,946.0,56268.0,100,0.6,2500.0
557,557,3.6931807869987097,946.0,56369.0,100,0.6,2500.0
558,558,3.699798881978495,946.0,56470.0,100,0.6,2500.0
559,559,3.70724253798835,946.0,56571.0,100,0.6,2500.0
560,560,3.71531367697753,946.0,56672.0,100,0.6,2500.0
561,561,3.722296969994204,946.0,56773.0,100,0.6,2500.0
562,562,3.7292434769915417,946.0,56874.0,100,0.6,2500.0
563,563,3.736908989987569,946.0,56975.0,100,0.6,2500.0
564,564,3.7455317319836468,946.0,57076.0,100,0.6,2500.0
565,565,3.7527597619919106,946.0,57177.0,100,0.6,2500.0
566,566,3.7599444829975255,946.0,57278.0,100,0.6,2500.0
567,567,3.7669080100022256,946.0,57379.0,100,0.6,2500.0
568,568,3.7744267660018522,946.0,57480.0,100,0.6,2500.0
569,569,3.7818564039771445,946.0,57581.0,100,0.6,2500.0
570,570,3.78893760900246,946.0,57682.0,100,0.6,2500.0
571,571,3.795763492002152,946.0,57783.0,100,0.6,2500.0
572,572,3.80290899600368,946.0,57884.0,100,0.6,2500.0
573,573,3.810573698981898,946.0,57985.0,100,0.6,2500.0
574,574,3.8179177699785214,946.0,58086.0,100,0.6,2500.0
575,575,3.825646265002433,946.0,58187.0,100,0.6,2500.0
576,576,3.8328578649961855,946.0,58288.0,100,0.6,2500.0
577,577,3.839951818983536,946.0,58389.0,100,0.6,2500.0
578,578,3.8469952309969813,946.0,58490.0,100,0.6,2500.0
579,579,3.8572752320033032,946.0,58591.0,100,0.6,2500.0
580,580,3.86624282199773,946.0,58692.0,100,0.6,2500.0
581,581,3.8732068539829925,946.0,58793.0,100,0.6,2500.0
582,582,3.879894172976492,946.0,58894.0,100,0.6,2500.0
583,583,3.8866879499983042,946.0,58995.0,100,0.6,2500.0
584,584,3.896998751995852,946.0,59096.0,100,0.6,2500.0
585,585,3.9042674579832237,946.0,59197.0,100,0.6,2500.0
586,586,3.9108706239785533,946.0,59298.0,100,0.6,2500.0
587,587,3.9185423140006606,946.0,59399.0,100,0.6,2500.0
588,588,3.9258532189996913,946.0,59500.0,100,0.6,2500.0
589,589,3.9328835569904186,946.0,59601.0,100,0.6,2500.0
590,590,3.939562120998744,946.0,59702.0,100,0.6,2500.0
591,591,3.9459471390000544,946.0,59803.0,100,0.6,2500.0
592,592,3.952236349985469,946.0,59904.0,100,0.6,2500.0
593,593,3.9583171510021202,946.0,60005.0,100,0.6,2500.0
594,594,3.964898710983107,946.0,60106.0,100,0.6,2500.0
595,595,3.970926652982598,946.0,60207.0,100,0.6,2500.0
596,596,3.9768140419910196,946.0,60308.0,100,0.6,2500.0
597,597,3.9832361500011757,946.0,60409.0,100,0.6,2500.0
598,598,3.9892741959774867,946.0,60510.0,100,0.6,2500.0
599,599,3.9953831679886207,946.0,60611.0,100,0.6,2500.0
600,600,4.001555322000058,946.0,60712.0,100,0.6,2500.0
601,601,4.007505667977966,946.0,60813.0,100,0.6,2500.0
602,602,4.01378834299976,946.0,60914.0,100,0.6,2500.0
603,603,4.019883483997546,946.0,61015.0,100,0.6,2500.0
604,604,4.026174294995144,946.0,61116.0,100,0.6,2500.0
605,605,4.032817768980749,946.0,61217.0,100,0.6,2500.0
606,606,4.038961780985119,946.0,61318.0,100,0.6,2500.0
607,607,4.045242021995364,946.0,61419.0,100,0.6,2500.0
608,608,4.05130098797963,946.0,61520.0,100,0.6,2500.0
609,609,4.057745662983507,946.0,61621.0,100,0.6,2500.0
610,610,4.064187958982075,946.0,61722.0,100,0.6,2500.0
