,Iteration,Fitness,FEvals,Time,State,Population Size,Mutation Rate,max_iters
0,0,555.0,100,0.0018265609978698194,"[6, 19, 14, 10, 7, 6, 18, 10, 10, 3]",100,0.6,2500.0
1,1,782.0,202,0.01171857098233886,"[18, 19, 18, 15, 8, 2, 11, 19, 0, 15]",100,0.6,2500.0
2,2,833.0,304,0.021649750997312367,"[18, 19, 9, 15, 18, 6, 12, 12, 0, 18]",100,0.6,2500.0
3,4,833.0,506,0.03804442100226879,"[18, 19, 9, 15, 18, 6, 12, 12, 0, 18]",100,0.6,2500.0
4,8,860.0,911,0.06640339197474532,"[18, 8, 13, 19, 14, 6, 19, 14, 3, 19]",100,0.6,2500.0
5,16,917.0,1723,0.11993450598674826,"[18, 16, 17, 19, 18, 1, 19, 12, 0, 19]",100,0.6,2500.0
6,32,945.0,3343,0.21905617899028584,"[19, 19, 17, 19, 19, 0, 19, 12, 0, 19]",100,0.6,2500.0
7,64,945.0,6575,0.4272685339965392,"[19, 19, 17, 19, 19, 0, 19, 12, 0, 19]",100,0.6,2500.0
8,128,946.0,13040,0.8174878879799508,"[19, 19, 11, 19, 19, 0, 19, 17, 0, 19]",100,0.6,2500.0
9,256,946.0,25968,1.6097512059786823,"[19, 19, 11, 19, 19, 0, 19, 17, 0, 19]",100,0.6,2500.0
10,512,946.0,51824,3.3682975959964097,"[19, 19, 11, 19, 19, 0, 19, 17, 0, 19]",100,0.6,2500.0
