,Iteration,Fitness,FEvals,Time,State,use_fast_mimic,Population Size,Keep Percent,max_iters
0,0,5.0,100,0.004689476016210392,"[6, 3, 7, 4, 6, 2, 6, 7, 4, 3, 7, 7, 2, 5, 4, 1, 7, 5, 1, 4]",True,100,0.6,500.0
1,1,12.0,202,0.04562869301298633,"[6.0, 4.0, 3.0, 6.0, 7.0, 0.0, 8.0, 2.0, 6.0, 7.0, 8.0, 5.0, 6.0, 7.0, 6.0, 6.0, 0.0, 6.0, 0.0, 7.0]",True,100,0.6,500.0
2,2,14.0,304,0.08250918501289561,"[7.0, 4.0, 6.0, 5.0, 3.0, 5.0, 5.0, 7.0, 0.0, 4.0, 1.0, 4.0, 3.0, 3.0, 1.0, 4.0, 4.0, 4.0, 1.0, 3.0]",True,100,0.6,500.0
3,4,14.0,506,0.14659297300386243,"[7.0, 4.0, 6.0, 5.0, 3.0, 5.0, 5.0, 7.0, 0.0, 4.0, 1.0, 4.0, 3.0, 3.0, 1.0, 4.0, 4.0, 4.0, 1.0, 3.0]",True,100,0.6,500.0
4,8,17.0,912,0.2700389320089016,"[3.0, 4.0, 3.0, 5.0, 3.0, 5.0, 7.0, 2.0, 7.0, 4.0, 4.0, 4.0, 0.0, 4.0, 3.0, 4.0, 4.0, 4.0, 3.0, 4.0]",True,100,0.6,500.0
5,16,18.0,1721,0.5032744299969636,"[4.0, 4.0, 6.0, 5.0, 3.0, 6.0, 5.0, 1.0, 1.0, 6.0, 1.0, 4.0, 4.0, 3.0, 1.0, 6.0, 4.0, 2.0, 1.0, 4.0]",True,100,0.6,500.0
6,32,18.0,2731,0.7788381059945095,"[4.0, 4.0, 6.0, 5.0, 3.0, 6.0, 5.0, 1.0, 1.0, 6.0, 1.0, 4.0, 4.0, 3.0, 1.0, 6.0, 4.0, 2.0, 1.0, 4.0]",True,100,0.6,500.0
7,64,18.0,2731,0.7788381059945095,"[4.0, 4.0, 6.0, 5.0, 3.0, 6.0, 5.0, 1.0, 1.0, 6.0, 1.0, 4.0, 4.0, 3.0, 1.0, 6.0, 4.0, 2.0, 1.0, 4.0]",True,100,0.6,500.0
8,128,18.0,2731,0.7788381059945095,"[4.0, 4.0, 6.0, 5.0, 3.0, 6.0, 5.0, 1.0, 1.0, 6.0, 1.0, 4.0, 4.0, 3.0, 1.0, 6.0, 4.0, 2.0, 1.0, 4.0]",True,100,0.6,500.0
9,256,18.0,2731,0.7788381059945095,"[4.0, 4.0, 6.0, 5.0, 3.0, 6.0, 5.0, 1.0, 1.0, 6.0, 1.0, 4.0, 4.0, 3.0, 1.0, 6.0, 4.0, 2.0, 1.0, 4.0]",True,100,0.6,500.0
10,512,18.0,2731,0.7788381059945095,"[4.0, 4.0, 6.0, 5.0, 3.0, 6.0, 5.0, 1.0, 1.0, 6.0, 1.0, 4.0, 4.0, 3.0, 1.0, 6.0, 4.0, 2.0, 1.0, 4.0]",True,100,0.6,500.0
