,Iteration,Time,Fitness,FEvals,use_fast_mimic,Population Size,Keep Percent,max_iters
0,0,0.0008585669856984168,1.0,100.0,True,100,0.6,500.0
1,1,0.045686138997552916,11.0,202.0,True,100,0.6,500.0
2,2,0.09410407199175097,11.0,303.0,True,100,0.6,500.0
3,3,0.1470915399841033,11.0,404.0,True,100,0.6,500.0
4,4,0.1935650160012301,11.0,505.0,True,100,0.6,500.0
5,5,0.24166929398779757,11.0,606.0,True,100,0.6,500.0
6,6,0.29105811499175616,11.0,707.0,True,100,0.6,500.0
7,7,0.3520651609869674,11.0,808.0,True,100,0.6,500.0
8,8,0.4099143339844886,11.0,909.0,True,100,0.6,500.0
9,9,0.4627923079824541,11.0,1010.0,True,100,0.6,500.0
10,10,0.5116745769919362,14.0,1112.0,True,100,0.6,500.0
11,11,0.5616930289834272,14.0,1213.0,True,100,0.6,500.0
12,12,0.6144610959745478,14.0,1314.0,True,100,0.6,500.0
13,13,0.666505838977173,14.0,1415.0,True,100,0.6,500.0
14,14,0.7187328229774721,14.0,1516.0,True,100,0.6,500.0
15,15,0.7796408209833317,14.0,1617.0,True,100,0.6,500.0
16,16,0.8395777429977898,14.0,1718.0,True,100,0.6,500.0
17,17,0.9052158309787046,14.0,1819.0,True,100,0.6,500.0
18,18,0.9685951809806284,14.0,1920.0,True,100,0.6,500.0
19,19,1.0319078530010302,14.0,2021.0,True,100,0.6,500.0
20,20,1.0927004909899551,14.0,2122.0,True,100,0.6,500.0
