,Iteration,Fitness,FEvals,Time,State,Restarts,max_iters,current_restart
0,0,85.0,0,8.725600491743535e-05,"[3, 0, 1, 0, 4, 3, 0, 0, 4, 1]",0,5000,0
1,1,88.0,2,0.004562946007354185,"[3, 0, 1, 0, 4, 4, 0, 0, 4, 1]",0,5000,0
2,2,96.0,4,0.009055930000613444,"[4, 0, 1, 0, 4, 4, 0, 0, 4, 1]",0,5000,0
3,4,116.0,7,0.013447990000713617,"[4, 4, 1, 0, 4, 4, 0, 0, 4, 1]",0,5000,0
4,8,132.0,13,0.017972750996705145,"[4, 4, 3, 0, 4, 4, 0, 0, 4, 2]",0,5000,0
5,16,149.0,23,0.022367803001543507,"[4, 4, 3, 0, 4, 4, 2, 1, 4, 2]",0,5000,0
6,32,149.0,39,0.027320007007801905,"[4, 4, 3, 0, 4, 4, 2, 1, 4, 2]",0,5000,0
7,64,155.0,72,0.03351661600754596,"[4, 4, 3, 0, 4, 4, 3, 1, 4, 2]",0,5000,0
8,128,155.0,136,0.04361033700115513,"[4, 4, 3, 0, 4, 4, 3, 1, 4, 2]",0,5000,0
9,256,155.0,264,0.06183566100662574,"[4, 4, 3, 0, 4, 4, 3, 1, 4, 2]",0,5000,0
10,512,155.0,520,0.11039011500542983,"[4, 4, 3, 0, 4, 4, 3, 1, 4, 2]",0,5000,0
