,Iteration,Fitness,FEvals,Time,State,use_fast_mimic,Population Size,Keep Percent,max_iters
0,0,177.0,100,0.0018215860036434606,"[3, 4, 2, 4, 4, 1, 2, 2, 2, 4]",True,100,0.6,50.0
1,1,177.0,201,0.014976196005591191,"[3, 4, 2, 4, 4, 1, 2, 2, 2, 4]",True,100,0.6,50.0
2,2,177.0,302,0.02900698099983856,"[3, 4, 2, 4, 4, 1, 2, 2, 2, 4]",True,100,0.6,50.0
3,4,181.0,505,0.052725771005498245,"[4.0, 3.0, 3.0, 4.0, 4.0, 3.0, 3.0, 1.0, 1.0, 3.0]",True,100,0.6,50.0
4,8,189.0,911,0.09516462200554088,"[4.0, 4.0, 0.0, 4.0, 4.0, 3.0, 3.0, 4.0, 1.0, 3.0]",True,100,0.6,50.0
5,16,196.0,1721,0.1660526729974663,"[4.0, 3.0, 3.0, 4.0, 4.0, 3.0, 3.0, 4.0, 1.0, 3.0]",True,100,0.6,50.0
6,32,196.0,2125,0.2004969490080839,"[4.0, 3.0, 3.0, 4.0, 4.0, 3.0, 3.0, 4.0, 1.0, 3.0]",True,100,0.6,50.0
7,64,196.0,2125,0.2004969490080839,"[4.0, 3.0, 3.0, 4.0, 4.0, 3.0, 3.0, 4.0, 1.0, 3.0]",True,100,0.6,50.0
8,128,196.0,2125,0.2004969490080839,"[4.0, 3.0, 3.0, 4.0, 4.0, 3.0, 3.0, 4.0, 1.0, 3.0]",True,100,0.6,50.0
9,256,196.0,2125,0.2004969490080839,"[4.0, 3.0, 3.0, 4.0, 4.0, 3.0, 3.0, 4.0, 1.0, 3.0]",True,100,0.6,50.0
10,512,196.0,2125,0.2004969490080839,"[4.0, 3.0, 3.0, 4.0, 4.0, 3.0, 3.0, 4.0, 1.0, 3.0]",True,100,0.6,50.0
