,Iteration,Time,Fitness,FEvals,use_fast_mimic,Population Size,Keep Percent,max_iters
0,0,0.0018215860036434606,177.0,100.0,True,100,0.6,50.0
1,1,0.014976196005591191,177.0,201.0,True,100,0.6,50.0
2,2,0.02900698099983856,177.0,302.0,True,100,0.6,50.0
3,3,0.04370114799530711,181.0,404.0,True,100,0.6,50.0
4,4,0.052725771005498245,181.0,505.0,True,100,0.6,50.0
5,5,0.06663500399736222,181.0,606.0,True,100,0.6,50.0
6,6,0.07466838300751988,185.0,708.0,True,100,0.6,50.0
7,7,0.08395445899805054,189.0,810.0,True,100,0.6,50.0
8,8,0.09516462200554088,189.0,911.0,True,100,0.6,50.0
9,9,0.10868130000017118,194.0,1013.0,True,100,0.6,50.0
10,10,0.11673271900508553,196.0,1115.0,True,100,0.6,50.0
11,11,0.12465130000782665,196.0,1216.0,True,100,0.6,50.0
12,12,0.13262140000006184,196.0,1317.0,True,100,0.6,50.0
13,13,0.14162728800147306,196.0,1418.0,True,100,0.6,50.0
14,14,0.15064731299935374,196.0,1519.0,True,100,0.6,50.0
15,15,0.15847959200618789,196.0,1620.0,True,100,0.6,50.0
16,16,0.1660526729974663,196.0,1721.0,True,100,0.6,50.0
17,17,0.17896957400080282,196.0,1822.0,True,100,0.6,50.0
18,18,0.1864247610064922,196.0,1923.0,True,100,0.6,50.0
19,19,0.19338745300774463,196.0,2024.0,True,100,0.6,50.0
20,20,0.2004969490080839,196.0,2125.0,True,100,0.6,50.0
